<?xml version="1.0" encoding="UTF-8" standalone="no"?>
<!-- Created with Inkscape (http://www.inkscape.org/) -->

<svg
   xmlns:dc="http://purl.org/dc/elements/1.1/"
   xmlns:cc="http://creativecommons.org/ns#"
   xmlns:rdf="http://www.w3.org/1999/02/22-rdf-syntax-ns#"
   xmlns:svg="http://www.w3.org/2000/svg"
   xmlns="http://www.w3.org/2000/svg"
   xmlns:sodipodi="http://sodipodi.sourceforge.net/DTD/sodipodi-0.dtd"
   xmlns:inkscape="http://www.inkscape.org/namespaces/inkscape"
   width="371"
   height="150"
   viewBox="0 0 371 150"
   id="svg18947"
   version="1.1"
   inkscape:version="0.91 r13725"
   sodipodi:docname="info-b.svg">
  <defs
     id="defs18949" />
  <sodipodi:namedview
     id="base"
     pagecolor="#ffffff"
     bordercolor="#666666"
     borderopacity="1.0"
     inkscape:pageopacity="0.0"
     inkscape:pageshadow="2"
     inkscape:zoom="1.0610016"
     inkscape:cx="116.91131"
     inkscape:cy="67.597288"
     inkscape:document-units="px"
     inkscape:current-layer="layer1"
     showgrid="false"
     units="px"
     inkscape:window-width="1366"
     inkscape:window-height="705"
     inkscape:window-x="-8"
     inkscape:window-y="-8"
     inkscape:window-maximized="1" />
  <metadata
     id="metadata18952">
    <rdf:RDF>
      <cc:Work
         rdf:about="">
        <dc:format>image/svg+xml</dc:format>
        <dc:type
           rdf:resource="http://purl.org/dc/dcmitype/StillImage" />
        <dc:title></dc:title>
      </cc:Work>
    </rdf:RDF>
  </metadata>
  <g
     inkscape:label="Capa 1"
     inkscape:groupmode="layer"
     id="layer1"
     transform="translate(0,-902.36216)">
    <g
       style="font-style:normal;font-weight:normal;font-size:26.87484932px;line-height:125%;font-family:Sans;letter-spacing:0px;word-spacing:0px;fill:#ffffff;fill-opacity:1;stroke:none"
       id="text3873-4-4-3"
       transform="matrix(1.3406692,0,0,1.3406692,1.9468751,-360.88988)">
      <path
         d="m 33.83136,952.48975 3.768927,0 0,32.04498 -3.768927,0 0,-32.04498 z"
         style="font-style:normal;font-variant:normal;font-weight:normal;font-stretch:ultra-condensed;font-size:37.28870392px;font-family:Antonio;-inkscape-font-specification:'Antonio Ultra-Condensed';fill:#ffffff"
         id="path4163"
         inkscape:connector-curvature="0" />
      <path
         d="m 53.040141,952.48975 3.33195,0 0,32.04498 -2.767521,0 -7.191914,-21.99451 0.218489,8.08407 0,13.91044 -3.477609,0 0,-32.04498 2.840351,0 7.428609,21.81243 -0.382355,-9.26755 0,-12.54488 z"
         style="font-style:normal;font-variant:normal;font-weight:normal;font-stretch:ultra-condensed;font-size:37.28870392px;font-family:Antonio;-inkscape-font-specification:'Antonio Ultra-Condensed';fill:#ffffff"
         id="path4165"
         inkscape:connector-curvature="0" />
      <path
         d="m 71.156479,952.48975 3.550438,0 -4.861369,32.04498 -4.387978,0 -5.334761,-32.04498 3.586853,0 2.130263,13.56449 1.820738,11.92583 0.07283,0 1.584042,-11.92583 1.838945,-13.56449 z"
         style="font-style:normal;font-variant:normal;font-weight:normal;font-stretch:ultra-condensed;font-size:37.28870392px;font-family:Antonio;-inkscape-font-specification:'Antonio Ultra-Condensed';fill:#ffffff"
         id="path4167"
         inkscape:connector-curvature="0" />
      <path
         d="m 78.403015,952.48975 9.577079,0 0,3.13167 -5.808153,0 0,10.96084 5.498628,0 0,3.13167 -5.498628,0 0,11.68913 5.880982,0 0,3.13167 -9.649908,0 0,-32.04498 z"
         style="font-style:normal;font-variant:normal;font-weight:normal;font-stretch:ultra-condensed;font-size:37.28870392px;font-family:Antonio;-inkscape-font-specification:'Antonio Ultra-Condensed';fill:#ffffff"
         id="path4169"
         inkscape:connector-curvature="0" />
      <path
         d="m 92.45911,952.48975 6.718521,0 q 2.858559,0 4.114869,1.18348 1.25631,1.18348 1.51121,4.02383 0.10924,1.16527 0.10924,3.64147 0,2.458 -0.65546,4.13308 -0.63726,1.67508 -2.27592,2.16668 1.20168,0.20028 1.82073,1.27451 0.61906,1.05603 0.87396,3.38657 0.2549,2.31234 0.2549,6.9006 0,4.57005 0.29132,5.33476 l -3.75072,0 q -0.29132,-0.58264 -0.29132,-10.79697 0,-3.4412 -0.67367,-3.98742 -0.673673,-0.56443 -2.039226,-0.56443 l -2.239508,-0.12745 0,15.47627 -3.768926,0 0,-32.04498 z m 8.72133,7.84738 q 0,-3.6961 -0.67367,-4.27874 -0.655466,-0.58263 -1.911775,-0.58263 l -2.366959,0 0,10.81518 2.403374,0 q 1.092442,0 1.60225,-0.41877 0.50981,-0.41877 0.72829,-1.60225 0.21849,-1.18348 0.21849,-3.7143 l 0,-0.21849 z"
         style="font-style:normal;font-variant:normal;font-weight:normal;font-stretch:ultra-condensed;font-size:37.28870392px;font-family:Antonio;-inkscape-font-specification:'Antonio Ultra-Condensed';fill:#ffffff"
         id="path4171"
         inkscape:connector-curvature="0" />
      <path
         d="m 109.42838,962.41277 q -0.32773,-1.14707 -0.32773,-2.74932 0,-3.4776 1.27452,-5.51683 1.29272,-2.05743 4.91599,-2.05743 4.66108,0 5.49862,4.47901 0.36415,1.92998 0.36415,4.86137 l 0,1.89357 -3.60506,0 0,-2.14847 q 0,-3.05884 -0.30952,-4.11487 -0.30953,-1.05603 -0.76471,-1.40197 -0.45519,-0.34594 -1.18348,-0.34594 -1.36556,0 -1.9664,1.00141 -0.60084,1.0014 -0.60084,2.9678 0,1.9664 0.54622,2.87677 0.54622,0.91036 1.34734,1.7479 0.80113,0.81934 0.89217,0.92858 l 2.18488,2.31234 q 3.93279,4.11486 3.93279,9.21293 0,4.15128 -1.29272,6.35437 -1.27452,2.18489 -4.87958,2.18489 -4.35156,0 -5.51683,-3.82355 -0.67367,-2.14847 -0.67367,-5.62608 0,-0.091 0,-0.18207 l 0,-3.11347 3.65968,0 0,3.25912 q 0,3.51403 0.5098,4.89779 0.50981,1.36555 1.89357,1.36555 1.38376,0 1.91178,-0.63726 0.52801,-0.65546 0.60084,-1.9846 0.091,-1.32914 0.091,-2.98601 0,-3.33195 -2.93139,-6.26334 l -2.09385,-2.09385 q -2.80393,-2.87676 -3.47761,-5.29834 z"
         style="font-style:normal;font-variant:normal;font-weight:normal;font-stretch:ultra-condensed;font-size:37.28870392px;font-family:Antonio;-inkscape-font-specification:'Antonio Ultra-Condensed';fill:#ffffff"
         id="path4173"
         inkscape:connector-curvature="0" />
      <path
         d="m 125.96068,952.48975 3.76893,0 0,32.04498 -3.76893,0 0,-32.04498 z"
         style="font-style:normal;font-variant:normal;font-weight:normal;font-stretch:ultra-condensed;font-size:37.28870392px;font-family:Antonio;-inkscape-font-specification:'Antonio Ultra-Condensed';fill:#ffffff"
         id="path4175"
         inkscape:connector-curvature="0" />
      <path
         d="m 134.91871,961.19287 q 0,-5.46221 1.96639,-7.50143 1.54763,-1.60225 4.49723,-1.60225 4.29694,0 5.49862,3.53223 0.71009,2.09385 0.71009,5.57145 l 0,14.12893 q 0,5.00703 -1.40197,7.30115 -1.40196,2.27593 -4.91599,2.27593 -3.49581,0 -4.9342,-2.29413 -1.42017,-2.29413 -1.42017,-7.28295 l 0,-14.12893 z m 8.9034,-0.21848 q 0,-3.07705 -0.49159,-4.35157 -0.4916,-1.29272 -1.98461,-1.29272 -1.493,0 -2.07564,1.31093 -0.58264,1.31093 -0.58264,4.31515 l 0,14.40203 q 0,3.65968 0.50981,4.98882 0.50981,1.31093 2.05743,1.31093 1.54763,0 2.05744,-1.32913 0.5098,-1.34735 0.5098,-4.97062 l 0,-14.38382 z m -6.02664,-13.01828 7.62889,-3.16808 0,3.62327 -7.62889,1.56583 0,-2.02102 z"
         style="font-style:normal;font-variant:normal;font-weight:normal;font-stretch:ultra-condensed;font-size:37.28870392px;font-family:Antonio;-inkscape-font-specification:'Antonio Ultra-Condensed';fill:#ffffff"
         id="path4177"
         inkscape:connector-curvature="0" />
      <path
         d="m 162.35722,952.48975 3.33195,0 0,32.04498 -2.76752,0 -7.19191,-21.99451 0.21848,8.08407 0,13.91044 -3.47761,0 0,-32.04498 2.84036,0 7.4286,21.81243 -0.38235,-9.26755 0,-12.54488 z"
         style="font-style:normal;font-variant:normal;font-weight:normal;font-stretch:ultra-condensed;font-size:37.28870392px;font-family:Antonio;-inkscape-font-specification:'Antonio Ultra-Condensed';fill:#ffffff"
         id="path4179"
         inkscape:connector-curvature="0" />
      <path
         d="m 45.300424,1012.8997 q 0,2.5195 -0.682369,4.2648 -0.669247,1.7322 -1.915883,2.7032 l 2.847579,2.5589 -1.627188,1.5879 -3.438091,-3.1363 q -0.380552,0.079 -0.787349,0.1181 -0.393675,0.053 -0.813594,0.053 -1.443473,0 -2.624497,-0.5118 -1.181024,-0.5118 -2.033985,-1.5353 -0.852962,-1.0236 -1.325371,-2.5458 -0.459287,-1.5222 -0.459287,-3.5562 l 0,-3.3069 q 0,-2.0208 0.459287,-3.5562 0.472409,-1.5353 1.312248,-2.5588 0.839839,-1.0236 2.020863,-1.5354 1.181024,-0.5249 2.624497,-0.5249 1.482841,0 2.676987,0.5249 1.194146,0.5118 2.020863,1.5354 0.839839,1.0235 1.286003,2.5588 0.459287,1.5354 0.459287,3.5562 l 0,3.3069 z m -2.401415,-3.3331 q 0,-1.5747 -0.262449,-2.7032 -0.26245,-1.1417 -0.774227,-1.8634 -0.511777,-0.7349 -1.272881,-1.0761 -0.747982,-0.3412 -1.732168,-0.3412 -0.918574,0 -1.666556,0.3412 -0.734859,0.3412 -1.259758,1.0761 -0.5249,0.7217 -0.813594,1.8634 -0.275573,1.1285 -0.275573,2.7032 l 0,3.3331 q 0,1.5878 0.288695,2.7295 0.288695,1.1416 0.813594,1.8765 0.5249,0.7217 1.272881,1.0629 0.747982,0.3412 1.666556,0.3412 0.984186,0 1.732168,-0.3412 0.747982,-0.3412 1.259758,-1.0629 0.511777,-0.7349 0.761105,-1.8765 0.262449,-1.1417 0.262449,-2.7295 l 0,-3.3331 z"
         style="font-style:normal;font-variant:normal;font-weight:normal;font-stretch:normal;font-size:26.87484932px;font-family:'Roboto Condensed';-inkscape-font-specification:'Roboto Condensed, ';fill:#ffffff"
         id="path4181"
         inkscape:connector-curvature="0" />
      <path
         d="m 59.302115,1020.7863 -10.681703,0 0,-1.7453 5.248994,-6.9549 q 0.721737,-0.9579 1.181024,-1.6928 0.472409,-0.7348 0.734859,-1.3385 0.275572,-0.6167 0.367429,-1.1416 0.10498,-0.5381 0.10498,-1.0892 0,-0.7086 -0.170592,-1.3254 -0.170592,-0.6299 -0.498655,-1.0891 -0.328062,-0.4593 -0.813594,-0.7218 -0.472409,-0.2755 -1.089166,-0.2755 -0.800472,0 -1.377861,0.2886 -0.564267,0.2887 -0.944819,0.8005 -0.367429,0.5118 -0.551144,1.2335 -0.170592,0.7086 -0.170592,1.5747 l -2.32268,0 q 0,-1.2072 0.341184,-2.2833 0.341185,-1.076 1.010432,-1.8765 0.669246,-0.8005 1.666555,-1.2598 1.010432,-0.4724 2.348925,-0.4724 1.154779,0 2.06023,0.3675 0.918574,0.3674 1.548453,1.0498 0.62988,0.6692 0.957942,1.614 0.341184,0.9448 0.341184,2.0865 0,0.8398 -0.236204,1.6928 -0.223083,0.853 -0.62988,1.7059 -0.406797,0.8399 -0.944818,1.6797 -0.538022,0.8267 -1.141657,1.6272 l -4.251685,5.5639 7.912859,0 0,1.9815 z"
         style="font-style:normal;font-variant:normal;font-weight:normal;font-stretch:normal;font-size:26.87484932px;font-family:'Roboto Condensed';-inkscape-font-specification:'Roboto Condensed, ';fill:#ffffff"
         id="path4183"
         inkscape:connector-curvature="0" />
      <path
         d="m 62.792695,1011.2069 0.826717,-9.5269 8.306533,0 0,2.2439 -6.351283,0 -0.446164,5.2097 q 0.433042,-0.3019 1.062921,-0.5643 0.643002,-0.2625 1.482841,-0.2625 1.115411,0 2.00774,0.4593 0.892329,0.4462 1.495963,1.286 0.616757,0.8267 0.944819,2.0078 0.328062,1.181 0.328062,2.6376 0,1.3778 -0.328062,2.5457 -0.314939,1.1548 -0.971064,2.0078 -0.643001,0.8398 -1.614065,1.3254 -0.971064,0.4724 -2.27019,0.4724 -0.984187,0 -1.863393,-0.315 -0.866084,-0.328 -1.548453,-0.9842 -0.669247,-0.6561 -1.102289,-1.6534 -0.433042,-0.9973 -0.538022,-2.3358 l 2.178333,0 q 0.196837,1.6403 0.931696,2.4802 0.747982,0.8267 1.942128,0.8267 0.669247,0 1.207268,-0.3018 0.538022,-0.3019 0.905452,-0.8661 0.36743,-0.5643 0.564267,-1.3648 0.196837,-0.8136 0.196837,-1.8109 0,-0.8923 -0.20996,-1.6665 -0.196837,-0.7742 -0.577389,-1.3385 -0.380552,-0.5774 -0.957941,-0.9055 -0.564267,-0.328 -1.286004,-0.328 -0.498654,0 -0.852962,0.092 -0.341184,0.079 -0.616756,0.2362 -0.26245,0.1575 -0.498655,0.3937 -0.236204,0.2231 -0.498654,0.4987 l -1.850271,-0.4987 z"
         style="font-style:normal;font-variant:normal;font-weight:normal;font-stretch:normal;font-size:26.87484932px;font-family:'Roboto Condensed';-inkscape-font-specification:'Roboto Condensed, ';fill:#ffffff"
         id="path4185"
         inkscape:connector-curvature="0" />
      <path
         d="m 85.337125,1012.6373 q 0,2.3489 -0.36743,3.9629 -0.354307,1.601 -1.023554,2.5983 -0.656124,0.9842 -1.600943,1.4172 -0.944819,0.4331 -2.11272,0.4331 -1.154779,0 -2.099597,-0.4331 -0.944819,-0.433 -1.627189,-1.4172 -0.669246,-0.9973 -1.036676,-2.5983 -0.36743,-1.614 -0.36743,-3.9629 l 0,-2.9132 q 0,-2.349 0.36743,-3.9368 0.36743,-1.5878 1.036676,-2.5589 0.669247,-0.971 1.600944,-1.3909 0.944818,-0.42 2.099597,-0.42 1.167901,0 2.11272,0.42 0.944819,0.4199 1.614066,1.3909 0.669247,0.9711 1.036676,2.5589 0.36743,1.5878 0.36743,3.9368 l 0,2.9132 z m -2.32268,-3.32 q 0,-1.6141 -0.183715,-2.7426 -0.183715,-1.1286 -0.538022,-1.8241 -0.354307,-0.7086 -0.879206,-1.0235 -0.5249,-0.3149 -1.207269,-0.3149 -0.669247,0 -1.194146,0.3149 -0.511777,0.3149 -0.866084,1.0235 -0.354307,0.6955 -0.551144,1.8241 -0.183715,1.1285 -0.183715,2.7426 l 0,3.7005 q 0,1.601 0.183715,2.7557 0.196837,1.1417 0.551144,1.8765 0.36743,0.7349 0.892329,1.0761 0.524899,0.3412 1.194146,0.3412 0.682369,0 1.207269,-0.3412 0.524899,-0.3412 0.866084,-1.0761 0.354307,-0.7348 0.524899,-1.8765 0.183715,-1.1547 0.183715,-2.7557 l 0,-3.7005 z"
         style="font-style:normal;font-variant:normal;font-weight:normal;font-stretch:normal;font-size:26.87484932px;font-family:'Roboto Condensed';-inkscape-font-specification:'Roboto Condensed, ';fill:#ffffff"
         id="path4187"
         inkscape:connector-curvature="0" />
      <path
         d="m 88.762095,1019.5134 q 0,-0.6298 0.36743,-1.0498 0.380552,-0.4199 1.128534,-0.4199 0.747981,0 1.128533,0.4199 0.393675,0.42 0.393675,1.0498 0,0.6037 -0.393675,1.0105 -0.380552,0.4068 -1.128533,0.4068 -0.747982,0 -1.128534,-0.4068 -0.36743,-0.4068 -0.36743,-1.0105 z"
         style="font-style:normal;font-variant:normal;font-weight:normal;font-stretch:normal;font-size:26.87484932px;font-family:'Roboto Condensed';-inkscape-font-specification:'Roboto Condensed, ';fill:#ffffff"
         id="path4189"
         inkscape:connector-curvature="0" />
      <path
         d="m 105.70322,1012.6373 q 0,2.3489 -0.36743,3.9629 -0.35431,1.601 -1.02355,2.5983 -0.65613,0.9842 -1.60095,1.4172 -0.94481,0.4331 -2.11272,0.4331 -1.154774,0 -2.099593,-0.4331 -0.944819,-0.433 -1.627188,-1.4172 -0.669247,-0.9973 -1.036676,-2.5983 -0.36743,-1.614 -0.36743,-3.9629 l 0,-2.9132 q 0,-2.349 0.36743,-3.9368 0.367429,-1.5878 1.036676,-2.5589 0.669247,-0.971 1.600943,-1.3909 0.944819,-0.42 2.099598,-0.42 1.1679,0 2.11272,0.42 0.94482,0.4199 1.61407,1.3909 0.66924,0.9711 1.03667,2.5589 0.36743,1.5878 0.36743,3.9368 l 0,2.9132 z m -2.32268,-3.32 q 0,-1.6141 -0.18371,-2.7426 -0.18372,-1.1286 -0.53803,-1.8241 -0.3543,-0.7086 -0.8792,-1.0235 -0.5249,-0.3149 -1.20727,-0.3149 -0.669247,0 -1.194147,0.3149 -0.511776,0.3149 -0.866084,1.0235 -0.354307,0.6955 -0.551144,1.8241 -0.183715,1.1285 -0.183715,2.7426 l 0,3.7005 q 0,1.601 0.183715,2.7557 0.196837,1.1417 0.551144,1.8765 0.36743,0.7349 0.892329,1.0761 0.5249,0.3412 1.194142,0.3412 0.68237,0 1.20727,-0.3412 0.5249,-0.3412 0.86609,-1.0761 0.3543,-0.7348 0.5249,-1.8765 0.18371,-1.1547 0.18371,-2.7557 l 0,-3.7005 z"
         style="font-style:normal;font-variant:normal;font-weight:normal;font-stretch:normal;font-size:26.87484932px;font-family:'Roboto Condensed';-inkscape-font-specification:'Roboto Condensed, ';fill:#ffffff"
         id="path4191"
         inkscape:connector-curvature="0" />
      <path
         d="m 118.98318,1012.6373 q 0,2.3489 -0.36743,3.9629 -0.35431,1.601 -1.02356,2.5983 -0.65612,0.9842 -1.60094,1.4172 -0.94482,0.4331 -2.11272,0.4331 -1.15478,0 -2.0996,-0.4331 -0.94482,-0.433 -1.62718,-1.4172 -0.66925,-0.9973 -1.03668,-2.5983 -0.36743,-1.614 -0.36743,-3.9629 l 0,-2.9132 q 0,-2.349 0.36743,-3.9368 0.36743,-1.5878 1.03668,-2.5589 0.66924,-0.971 1.60094,-1.3909 0.94482,-0.42 2.0996,-0.42 1.1679,0 2.11272,0.42 0.94482,0.4199 1.61406,1.3909 0.66925,0.9711 1.03668,2.5589 0.36743,1.5878 0.36743,3.9368 l 0,2.9132 z m -2.32268,-3.32 q 0,-1.6141 -0.18372,-2.7426 -0.18371,-1.1286 -0.53802,-1.8241 -0.35431,-0.7086 -0.8792,-1.0235 -0.5249,-0.3149 -1.20727,-0.3149 -0.66925,0 -1.19415,0.3149 -0.51178,0.3149 -0.86608,1.0235 -0.35431,0.6955 -0.55115,1.8241 -0.18371,1.1285 -0.18371,2.7426 l 0,3.7005 q 0,1.601 0.18371,2.7557 0.19684,1.1417 0.55115,1.8765 0.36743,0.7349 0.89233,1.0761 0.52489,0.3412 1.19414,0.3412 0.68237,0 1.20727,-0.3412 0.5249,-0.3412 0.86608,-1.0761 0.35431,-0.7348 0.5249,-1.8765 0.18372,-1.1547 0.18372,-2.7557 l 0,-3.7005 z"
         style="font-style:normal;font-variant:normal;font-weight:normal;font-stretch:normal;font-size:26.87484932px;font-family:'Roboto Condensed';-inkscape-font-specification:'Roboto Condensed, ';fill:#ffffff"
         id="path4193"
         inkscape:connector-curvature="0" />
      <path
         d="m 129.38071,1012.2363 q 0.42266,-0.546 0.99501,-0.8454 0.58116,-0.3082 1.27679,-0.3082 0.58116,0 1.05665,0.1938 0.47549,0.1849 0.8101,0.6075 0.33461,0.4139 0.51072,1.0743 0.18491,0.6516 0.18491,1.585 l 0,6.243 -1.54976,0 0,-6.2606 q 0,-1.1183 -0.37863,-1.585 -0.36983,-0.4755 -1.11829,-0.4755 -0.58116,0 -1.04784,0.3874 -0.45789,0.3875 -0.73966,1.0127 l 0,6.921 -1.55856,0 0,-13.5251 1.55856,0 0,4.9751 z"
         style="font-size:18.03351212px;fill:#ffffff"
         id="path4195"
         inkscape:connector-curvature="0" />
      <path
         d="m 141.46175,1020.7863 q -0.0793,-0.1761 -0.13208,-0.4491 -0.044,-0.2817 -0.0704,-0.5899 -0.16731,0.2465 -0.38744,0.4667 -0.21133,0.2201 -0.4843,0.3874 -0.26416,0.1673 -0.58116,0.2642 -0.30819,0.097 -0.66041,0.097 -0.62518,0 -1.1359,-0.1761 -0.50191,-0.1761 -0.86293,-0.5283 -0.36102,-0.3522 -0.55474,-0.8629 -0.19372,-0.5196 -0.19372,-1.2064 0,-0.6868 0.23775,-1.268 0.23774,-0.5811 0.70443,-1.0038 0.46669,-0.4226 1.17112,-0.6604 0.70444,-0.2465 1.63781,-0.2465 l 1.08307,0 0,-1.0127 q 0,-0.8541 -0.37863,-1.2151 -0.37864,-0.361 -1.15352,-0.361 -0.37863,0 -0.67801,0.1232 -0.29058,0.1145 -0.49311,0.317 -0.20252,0.2026 -0.30819,0.4755 -0.10566,0.2642 -0.10566,0.5636 l -1.55856,0 q 0,-0.5107 0.22013,-1.0126 0.22894,-0.5108 0.6428,-0.907 0.42266,-0.4051 1.02143,-0.6516 0.59877,-0.2466 1.33842,-0.2466 0.66041,0 1.20635,0.1585 0.55474,0.1585 0.95098,0.5108 0.40505,0.3522 0.62519,0.9069 0.22013,0.5548 0.22013,1.356 l 0,4.6933 q 0,0.2378 0.0176,0.5019 0.0176,0.2642 0.0528,0.5196 0.044,0.2553 0.0969,0.4931 0.0616,0.2289 0.13208,0.4226 l 0,0.1409 -1.6202,0 z m -2.07808,-1.2415 q 0.3258,0 0.61638,-0.097 0.29058,-0.097 0.52832,-0.2466 0.23775,-0.1585 0.41386,-0.3522 0.18491,-0.2025 0.29058,-0.4138 l 0,-2.2718 -0.81891,0 q -0.56354,0 -1.02143,0.1232 -0.44907,0.1233 -0.77487,0.3611 -0.317,0.2289 -0.49311,0.5723 -0.1673,0.3434 -0.1673,0.7837 0,0.4315 0.0881,0.7309 0.0881,0.2905 0.26417,0.4754 0.17611,0.1762 0.44027,0.2554 0.27297,0.079 0.63399,0.079 z"
         style="font-size:18.03351212px;fill:#ffffff"
         id="path4197"
         inkscape:connector-curvature="0" />
      <path
         d="m 149.8181,1018.3472 q 0,-0.2641 -0.0969,-0.4755 -0.0969,-0.2201 -0.31699,-0.4138 -0.22014,-0.2026 -0.57236,-0.3963 -0.34341,-0.1937 -0.85412,-0.4226 -0.66041,-0.273 -1.18874,-0.5372 -0.51952,-0.2641 -0.88054,-0.5811 -0.35222,-0.3258 -0.54594,-0.7397 -0.18491,-0.4226 -0.18491,-0.995 0,-0.5635 0.21133,-1.0566 0.22014,-0.4931 0.61638,-0.8542 0.39624,-0.3698 0.95099,-0.5811 0.55474,-0.2114 1.24156,-0.2114 0.72205,0 1.2944,0.2202 0.57235,0.2201 0.9686,0.6164 0.39624,0.3874 0.60757,0.9157 0.21133,0.5283 0.21133,1.1359 l -1.54975,0 q 0,-0.2906 -0.10567,-0.5635 -0.0969,-0.2818 -0.29938,-0.5019 -0.19372,-0.2202 -0.4755,-0.3523 -0.28177,-0.132 -0.6516,-0.132 -0.39624,0 -0.67802,0.1144 -0.27296,0.1057 -0.44907,0.2906 -0.17611,0.1761 -0.26417,0.4139 -0.0792,0.2377 -0.0792,0.4931 0,0.2641 0.0704,0.4579 0.0793,0.1849 0.26416,0.3522 0.18492,0.1673 0.50191,0.3346 0.3258,0.1673 0.82771,0.3874 0.72205,0.2818 1.27679,0.5724 0.56355,0.2817 0.94218,0.6252 0.37863,0.3346 0.57235,0.766 0.19372,0.4315 0.19372,1.0038 0,0.6252 -0.22894,1.1359 -0.22014,0.502 -0.63399,0.863 -0.41386,0.3522 -0.99501,0.5459 -0.58116,0.1849 -1.2856,0.1849 -0.8101,0 -1.43528,-0.2465 -0.62519,-0.2554 -1.04785,-0.6692 -0.42266,-0.4227 -0.64279,-0.9686 -0.21133,-0.546 -0.21133,-1.1359 l 1.56736,0 q 0.0176,0.5019 0.18492,0.8277 0.1673,0.3258 0.41385,0.5195 0.25536,0.1937 0.56355,0.273 0.30819,0.07 0.60757,0.07 0.77488,0 1.17993,-0.3434 0.40505,-0.3522 0.40505,-0.9422 z"
         style="font-size:18.03351212px;fill:#ffffff"
         id="path4199"
         inkscape:connector-curvature="0" />
      <path
         d="m 155.47119,1008.9518 0,2.307 1.43528,0 0,1.2592 -1.43528,0 0,5.9085 q 0,0.3698 0.0704,0.5987 0.0704,0.2202 0.18491,0.3434 0.11448,0.1233 0.25536,0.1674 0.14969,0.035 0.30819,0.035 0.1585,0 0.35222,-0.035 0.19372,-0.044 0.27297,-0.07 l -0.0176,1.3208 q -0.1585,0.053 -0.42266,0.1145 -0.25536,0.062 -0.66041,0.062 -0.37863,0 -0.72205,-0.1321 -0.34341,-0.1232 -0.60757,-0.4226 -0.25536,-0.2994 -0.41386,-0.7837 -0.14969,-0.4931 -0.14969,-1.2063 l 0,-5.8997 -1.45289,0 0,-1.2592 1.45289,0 0,-2.307 1.54976,0 z"
         style="font-size:18.03351212px;fill:#ffffff"
         id="path4201"
         inkscape:connector-curvature="0" />
      <path
         d="m 163.68665,1020.7863 q -0.0792,-0.1761 -0.13208,-0.4491 -0.044,-0.2817 -0.0705,-0.5899 -0.1673,0.2465 -0.38743,0.4667 -0.21133,0.2201 -0.4843,0.3874 -0.26417,0.1673 -0.58116,0.2642 -0.30819,0.097 -0.66041,0.097 -0.62518,0 -1.1359,-0.1761 -0.50191,-0.1761 -0.86293,-0.5283 -0.36102,-0.3522 -0.55474,-0.8629 -0.19372,-0.5196 -0.19372,-1.2064 0,-0.6868 0.23775,-1.268 0.23774,-0.5811 0.70443,-1.0038 0.46669,-0.4226 1.17112,-0.6604 0.70444,-0.2465 1.63781,-0.2465 l 1.08307,0 0,-1.0127 q 0,-0.8541 -0.37864,-1.2151 -0.37863,-0.361 -1.15351,-0.361 -0.37863,0 -0.67801,0.1232 -0.29058,0.1145 -0.49311,0.317 -0.20252,0.2026 -0.30819,0.4755 -0.10566,0.2642 -0.10566,0.5636 l -1.55856,0 q 0,-0.5107 0.22013,-1.0126 0.22894,-0.5108 0.6428,-0.907 0.42266,-0.4051 1.02143,-0.6516 0.59877,-0.2466 1.33842,-0.2466 0.66041,0 1.20635,0.1585 0.55474,0.1585 0.95098,0.5108 0.40505,0.3522 0.62519,0.9069 0.22013,0.5548 0.22013,1.356 l 0,4.6933 q 0,0.2378 0.0176,0.5019 0.0176,0.2642 0.0528,0.5196 0.044,0.2553 0.0969,0.4931 0.0616,0.2289 0.13208,0.4226 l 0,0.1409 -1.6202,0 z m -2.07808,-1.2415 q 0.3258,0 0.61638,-0.097 0.29058,-0.097 0.52832,-0.2466 0.23775,-0.1585 0.41386,-0.3522 0.18491,-0.2025 0.29058,-0.4138 l 0,-2.2718 -0.81891,0 q -0.56354,0 -1.02143,0.1232 -0.44907,0.1233 -0.77487,0.3611 -0.317,0.2289 -0.49311,0.5723 -0.1673,0.3434 -0.1673,0.7837 0,0.4315 0.0881,0.7309 0.0881,0.2905 0.26417,0.4754 0.17611,0.1762 0.44027,0.2554 0.27297,0.079 0.63399,0.079 z"
         style="font-size:18.03351212px;fill:#ffffff"
         id="path4203"
         inkscape:connector-curvature="0" />
      <path
         d="m 174.93998,1020.9624 q -0.85413,0 -1.54095,-0.2553 -0.68682,-0.2554 -1.17112,-0.7749 -0.4755,-0.5283 -0.73085,-1.3296 -0.25536,-0.8013 -0.25536,-1.8932 l 0,-1.0743 q 0,-1.2591 0.29938,-2.1221 0.29939,-0.8717 0.78369,-1.4088 0.4931,-0.546 1.12709,-0.7837 0.63399,-0.2378 1.31201,-0.2378 0.89815,0 1.53214,0.2994 0.63399,0.2906 1.03904,0.863 0.40505,0.5723 0.58997,1.4088 0.18491,0.8365 0.18491,1.9284 l 0,0.907 -5.31848,0 0,0.2201 q 0,1.5322 0.57236,2.2278 0.58116,0.6956 1.66422,0.6956 0.39625,0 0.71324,-0.079 0.317,-0.079 0.58116,-0.2202 0.26416,-0.1497 0.4843,-0.3434 0.22013,-0.2025 0.41385,-0.4403 l 0.8101,0.9863 q -0.19372,0.2729 -0.46668,0.5283 -0.27297,0.2553 -0.65161,0.4579 -0.37863,0.1937 -0.87173,0.317 -0.4843,0.1232 -1.10068,0.1232 z m -0.17611,-8.5412 q -0.40505,0 -0.74846,0.1232 -0.34341,0.1233 -0.60758,0.4403 -0.25535,0.3082 -0.41385,0.8365 -0.1585,0.5284 -0.19372,1.3296 l 3.75111,0 0,-0.2113 q -0.0264,-0.5547 -0.12327,-1.0126 -0.0881,-0.4667 -0.29058,-0.8013 -0.19372,-0.3346 -0.52833,-0.5195 -0.33461,-0.1849 -0.84532,-0.1849 z"
         style="font-size:18.03351212px;fill:#ffffff"
         id="path4205"
         inkscape:connector-curvature="0" />
      <path
         d="m 181.66733,1020.7863 -1.55856,0 0,-13.5251 1.55856,0 0,13.5251 z"
         style="font-size:18.03351212px;fill:#ffffff"
         id="path4207"
         inkscape:connector-curvature="0" />
      <path
         d="m 195.2629,1020.7863 -7.16762,0 0,-1.1711 3.52217,-4.6669 q 0.4843,-0.6428 0.79249,-1.1359 0.317,-0.4931 0.4931,-0.8981 0.18492,-0.4139 0.24656,-0.7661 0.0704,-0.361 0.0704,-0.7309 0,-0.4754 -0.11447,-0.8893 -0.11447,-0.4227 -0.33461,-0.7309 -0.22013,-0.3081 -0.54593,-0.4842 -0.317,-0.185 -0.73085,-0.185 -0.53714,0 -0.92457,0.1938 -0.37864,0.1937 -0.63399,0.5371 -0.24656,0.3434 -0.36983,0.8277 -0.11447,0.4755 -0.11447,1.0566 l -1.55856,0 q 0,-0.8101 0.22894,-1.5321 0.22894,-0.722 0.67802,-1.2592 0.44907,-0.5371 1.11828,-0.8453 0.67802,-0.317 1.57618,-0.317 0.77487,0 1.38245,0.2466 0.61638,0.2465 1.03904,0.7044 0.42266,0.4491 0.64279,1.0831 0.22894,0.634 0.22894,1.4 0,0.5636 -0.15849,1.1359 -0.1497,0.5724 -0.42266,1.1447 -0.27297,0.5636 -0.63399,1.1271 -0.36103,0.5548 -0.76608,1.0919 l -2.85295,3.7335 5.30967,0 0,1.3296 z"
         style="font-size:18.03351212px;fill:#ffffff"
         id="path4209"
         inkscape:connector-curvature="0" />
      <path
         d="m 204.13877,1020.7863 -7.16762,0 0,-1.1711 3.52217,-4.6669 q 0.4843,-0.6428 0.79249,-1.1359 0.31699,-0.4931 0.4931,-0.8981 0.18492,-0.4139 0.24656,-0.7661 0.0704,-0.361 0.0704,-0.7309 0,-0.4754 -0.11447,-0.8893 -0.11447,-0.4227 -0.33461,-0.7309 -0.22013,-0.3081 -0.54593,-0.4842 -0.317,-0.185 -0.73085,-0.185 -0.53714,0 -0.92457,0.1938 -0.37864,0.1937 -0.634,0.5371 -0.24655,0.3434 -0.36982,0.8277 -0.11447,0.4755 -0.11447,1.0566 l -1.55856,0 q 0,-0.8101 0.22894,-1.5321 0.22894,-0.722 0.67801,-1.2592 0.44908,-0.5371 1.11829,-0.8453 0.67802,-0.317 1.57618,-0.317 0.77487,0 1.38245,0.2466 0.61638,0.2465 1.03904,0.7044 0.42266,0.4491 0.64279,1.0831 0.22894,0.634 0.22894,1.4 0,0.5636 -0.15849,1.1359 -0.1497,0.5724 -0.42266,1.1447 -0.27297,0.5636 -0.63399,1.1271 -0.36103,0.5548 -0.76608,1.0919 l -2.85295,3.7335 5.30967,0 0,1.3296 z"
         style="font-size:18.03351212px;fill:#ffffff"
         id="path4211"
         inkscape:connector-curvature="0" />
      <path
         d="m 209.77424,1015.5911 q 0,-1.1711 0.22894,-2.0252 0.22894,-0.8542 0.6428,-1.4001 0.42266,-0.5547 1.01262,-0.8189 0.58997,-0.2642 1.30321,-0.2642 0.71324,0 1.23276,0.2906 0.52832,0.2818 0.89815,0.8189 l 0,-4.931 1.55856,0 0,13.5251 -1.42648,0 -0.0793,-1.0214 q -0.36983,0.5811 -0.90696,0.8893 -0.53713,0.3082 -1.28559,0.3082 -0.70443,0 -1.2944,-0.2729 -0.58115,-0.2818 -1.00381,-0.8366 -0.41386,-0.5547 -0.65161,-1.3912 -0.22894,-0.8453 -0.22894,-1.9812 l 0,-0.8894 z m 1.55856,0.8894 q 0,1.6026 0.4755,2.3598 0.47549,0.7485 1.54975,0.7485 0.6516,0 1.06546,-0.3258 0.41385,-0.3258 0.66921,-0.8453 l 0,-4.8078 q -0.26416,-0.5019 -0.68682,-0.8189 -0.41386,-0.3258 -1.03904,-0.3258 -1.08307,0 -1.55856,0.7661 -0.4755,0.766 -0.4755,2.3598 l 0,0.8894 z"
         style="font-size:18.03351212px;fill:#ffffff"
         id="path4213"
         inkscape:connector-curvature="0" />
      <path
         d="m 222.45406,1020.9624 q -0.85412,0 -1.54095,-0.2553 -0.68682,-0.2554 -1.17112,-0.7749 -0.47549,-0.5283 -0.73085,-1.3296 -0.25536,-0.8013 -0.25536,-1.8932 l 0,-1.0743 q 0,-1.2591 0.29939,-2.1221 0.29938,-0.8717 0.78368,-1.4088 0.4931,-0.546 1.1271,-0.7837 0.63399,-0.2378 1.312,-0.2378 0.89816,0 1.53215,0.2994 0.63399,0.2906 1.03904,0.863 0.40505,0.5723 0.58996,1.4088 0.18492,0.8365 0.18492,1.9284 l 0,0.907 -5.31848,0 0,0.2201 q 0,1.5322 0.57235,2.2278 0.58116,0.6956 1.66423,0.6956 0.39624,0 0.71324,-0.079 0.31699,-0.079 0.58115,-0.2202 0.26417,-0.1497 0.4843,-0.3434 0.22014,-0.2025 0.41386,-0.4403 l 0.8101,0.9863 q -0.19372,0.2729 -0.46669,0.5283 -0.27297,0.2553 -0.6516,0.4579 -0.37864,0.1937 -0.87174,0.317 -0.4843,0.1232 -1.10068,0.1232 z m -0.17611,-8.5412 q -0.40505,0 -0.74846,0.1232 -0.34341,0.1233 -0.60757,0.4403 -0.25536,0.3082 -0.41386,0.8365 -0.15849,0.5284 -0.19372,1.3296 l 3.75112,0 0,-0.2113 q -0.0264,-0.5547 -0.12328,-1.0126 -0.0881,-0.4667 -0.29058,-0.8013 -0.19372,-0.3346 -0.52833,-0.5195 -0.3346,-0.1849 -0.84532,-0.1849 z"
         style="font-size:18.03351212px;fill:#ffffff"
         id="path4215"
         inkscape:connector-curvature="0" />
      <path
         d="m 236.25216,1018.3472 q 0,-0.2641 -0.0969,-0.4755 -0.0969,-0.2201 -0.317,-0.4138 -0.22013,-0.2026 -0.57235,-0.3963 -0.34341,-0.1937 -0.85412,-0.4226 -0.66041,-0.273 -1.18874,-0.5372 -0.51952,-0.2641 -0.88054,-0.5811 -0.35222,-0.3258 -0.54594,-0.7397 -0.18491,-0.4226 -0.18491,-0.995 0,-0.5635 0.21133,-1.0566 0.22014,-0.4931 0.61638,-0.8542 0.39624,-0.3698 0.95099,-0.5811 0.55474,-0.2114 1.24156,-0.2114 0.72205,0 1.2944,0.2202 0.57235,0.2201 0.9686,0.6164 0.39624,0.3874 0.60757,0.9157 0.21133,0.5283 0.21133,1.1359 l -1.54976,0 q 0,-0.2906 -0.10566,-0.5635 -0.0969,-0.2818 -0.29938,-0.5019 -0.19372,-0.2202 -0.4755,-0.3523 -0.28177,-0.132 -0.6516,-0.132 -0.39624,0 -0.67802,0.1144 -0.27297,0.1057 -0.44907,0.2906 -0.17611,0.1761 -0.26417,0.4139 -0.0793,0.2377 -0.0793,0.4931 0,0.2641 0.0704,0.4579 0.0793,0.1849 0.26416,0.3522 0.18491,0.1673 0.50191,0.3346 0.3258,0.1673 0.82771,0.3874 0.72205,0.2818 1.27679,0.5724 0.56354,0.2817 0.94218,0.6252 0.37863,0.3346 0.57235,0.766 0.19372,0.4315 0.19372,1.0038 0,0.6252 -0.22894,1.1359 -0.22014,0.502 -0.63399,0.863 -0.41386,0.3522 -0.99502,0.5459 -0.58115,0.1849 -1.28559,0.1849 -0.8101,0 -1.43528,-0.2465 -0.62519,-0.2554 -1.04785,-0.6692 -0.42266,-0.4227 -0.64279,-0.9686 -0.21133,-0.546 -0.21133,-1.1359 l 1.56736,0 q 0.0176,0.5019 0.18492,0.8277 0.1673,0.3258 0.41385,0.5195 0.25536,0.1937 0.56355,0.273 0.30819,0.07 0.60757,0.07 0.77488,0 1.17993,-0.3434 0.40505,-0.3522 0.40505,-0.9422 z"
         style="font-size:18.03351212px;fill:#ffffff"
         id="path4217"
         inkscape:connector-curvature="0" />
      <path
         d="m 243.27009,1020.9624 q -0.85413,0 -1.54095,-0.2553 -0.68683,-0.2554 -1.17112,-0.7749 -0.4755,-0.5283 -0.73085,-1.3296 -0.25536,-0.8013 -0.25536,-1.8932 l 0,-1.0743 q 0,-1.2591 0.29938,-2.1221 0.29939,-0.8717 0.78369,-1.4088 0.4931,-0.546 1.12709,-0.7837 0.63399,-0.2378 1.31201,-0.2378 0.89815,0 1.53214,0.2994 0.63399,0.2906 1.03904,0.863 0.40505,0.5723 0.58997,1.4088 0.18491,0.8365 0.18491,1.9284 l 0,0.907 -5.31848,0 0,0.2201 q 0,1.5322 0.57236,2.2278 0.58115,0.6956 1.66422,0.6956 0.39625,0 0.71324,-0.079 0.317,-0.079 0.58116,-0.2202 0.26416,-0.1497 0.4843,-0.3434 0.22013,-0.2025 0.41385,-0.4403 l 0.8101,0.9863 q -0.19372,0.2729 -0.46669,0.5283 -0.27296,0.2553 -0.6516,0.4579 -0.37863,0.1937 -0.87173,0.317 -0.4843,0.1232 -1.10068,0.1232 z m -0.17611,-8.5412 q -0.40505,0 -0.74846,0.1232 -0.34341,0.1233 -0.60758,0.4403 -0.25535,0.3082 -0.41385,0.8365 -0.1585,0.5284 -0.19372,1.3296 l 3.75111,0 0,-0.2113 q -0.0264,-0.5547 -0.12328,-1.0126 -0.088,-0.4667 -0.29057,-0.8013 -0.19372,-0.3346 -0.52833,-0.5195 -0.33461,-0.1849 -0.84532,-0.1849 z"
         style="font-size:18.03351212px;fill:#ffffff"
         id="path4219"
         inkscape:connector-curvature="0" />
      <path
         d="m 255.20143,1016.4805 q 0,2.263 -0.8189,3.3724 -0.8101,1.1095 -2.29822,1.1095 -0.74846,0 -1.2944,-0.2729 -0.53713,-0.2818 -0.91576,-0.8101 l 0,4.57 -1.54976,0 0,-13.1906 1.40887,0 0.0793,1.0567 q 0.37863,-0.5988 0.92457,-0.9158 0.55474,-0.317 1.32081,-0.317 0.76608,0 1.34723,0.2642 0.58997,0.2642 0.98621,0.8189 0.39625,0.5459 0.59877,1.4001 0.21133,0.8541 0.21133,2.0252 l 0,0.8894 z m -1.54975,-0.8894 q 0,-1.6026 -0.49311,-2.3598 -0.4931,-0.7661 -1.58497,-0.7661 -0.60758,0 -1.03024,0.317 -0.41385,0.3082 -0.66921,0.8013 l 0,4.9574 q 0.25536,0.4843 0.66041,0.7925 0.40505,0.2994 1.05665,0.2994 1.06545,0 1.55856,-0.7749 0.50191,-0.7748 0.50191,-2.3774 l 0,-0.8894 z"
         style="font-size:18.03351212px;fill:#ffffff"
         id="path4221"
         inkscape:connector-curvature="0" />
      <path
         d="m 257.29712,1019.9322 q 0,-0.4227 0.24656,-0.7044 0.25535,-0.2818 0.75726,-0.2818 0.50191,0 0.75727,0.2818 0.26416,0.2817 0.26416,0.7044 0,0.405 -0.26416,0.678 -0.25536,0.273 -0.75727,0.273 -0.50191,0 -0.75726,-0.273 -0.24656,-0.273 -0.24656,-0.678 z"
         style="font-size:18.03351212px;fill:#ffffff"
         id="path4223"
         inkscape:connector-curvature="0" />
      <path
         d="m 42.835511,1043.2869 q 0,2.0877 -0.565421,3.5339 -0.554547,1.4353 -1.587527,2.2399 l 2.359544,2.1204 -1.348311,1.3157 -2.848851,-2.5988 q -0.315331,0.065 -0.652408,0.098 -0.326205,0.043 -0.674156,0.043 -1.196082,0 -2.174695,-0.4241 -0.978613,-0.4241 -1.685389,-1.2722 -0.706776,-0.8481 -1.098222,-2.1095 -0.380571,-1.2613 -0.380571,-2.9467 l 0,-2.7401 q 0,-1.6745 0.380571,-2.9467 0.391446,-1.2722 1.087348,-2.1203 0.695903,-0.8482 1.674516,-1.2722 0.978613,-0.435 2.174695,-0.435 1.228703,0 2.218189,0.435 0.989487,0.424 1.674516,1.2722 0.695902,0.8481 1.065601,2.1203 0.380571,1.2722 0.380571,2.9467 l 0,2.7401 z m -1.989846,-2.7618 q 0,-1.3048 -0.21747,-2.24 -0.217469,-0.946 -0.641535,-1.544 -0.424065,-0.6089 -1.054727,-0.8916 -0.619788,-0.2827 -1.435299,-0.2827 -0.761143,0 -1.380932,0.2827 -0.608914,0.2827 -1.043853,0.8916 -0.434939,0.598 -0.674156,1.544 -0.228343,0.9352 -0.228343,2.24 l 0,2.7618 q 0,1.3157 0.239217,2.2617 0.239216,0.946 0.674155,1.5549 0.434939,0.5981 1.054727,0.8808 0.619789,0.2827 1.380932,0.2827 0.815511,0 1.435299,-0.2827 0.619788,-0.2827 1.043854,-0.8808 0.424065,-0.6089 0.630661,-1.5549 0.21747,-0.946 0.21747,-2.2617 l 0,-2.7618 z"
         style="font-size:22.26888084px;fill:#ffffff"
         id="path4225"
         inkscape:connector-curvature="0" />
      <path
         d="m 54.437511,1049.8219 -8.85101,0 0,-1.4462 4.349391,-5.7629 q 0.598041,-0.7938 0.978613,-1.4027 0.391445,-0.6089 0.608915,-1.1091 0.228343,-0.511 0.304457,-0.946 0.08699,-0.4458 0.08699,-0.9025 0,-0.5872 -0.141355,-1.0982 -0.141356,-0.5219 -0.413193,-0.9025 -0.271836,-0.3806 -0.674155,-0.598 -0.391445,-0.2284 -0.902499,-0.2284 -0.663282,0 -1.141715,0.2392 -0.467559,0.2392 -0.78289,0.6633 -0.304458,0.4241 -0.456686,1.0221 -0.141355,0.5872 -0.141355,1.3048 l -1.924606,0 q 0,-1.0003 0.282711,-1.892 0.28271,-0.8916 0.837257,-1.5549 0.554548,-0.6632 1.380932,-1.0438 0.837258,-0.3915 1.946352,-0.3915 0.956866,0 1.707136,0.3045 0.761144,0.3045 1.28307,0.8699 0.521927,0.5545 0.793764,1.3374 0.282711,0.7829 0.282711,1.7289 0,0.6959 -0.195723,1.4027 -0.184849,0.7068 -0.521927,1.4135 -0.337078,0.6959 -0.78289,1.3918 -0.445813,0.6851 -0.945993,1.3483 l -3.523006,4.6104 6.556706,0 0,1.6419 z"
         style="font-size:22.26888084px;fill:#ffffff"
         id="path4227"
         inkscape:connector-curvature="0" />
      <path
         d="m 65.278368,1035.121 -5.447612,14.7009 -2.011594,0 5.436739,-14.179 -7.056887,0 0,-1.6528 9.079354,0 0,1.1309 z"
         style="font-size:22.26888084px;fill:#ffffff"
         id="path4229"
         inkscape:connector-curvature="0" />
      <path
         d="m 68.333814,1041.8843 0.685029,-7.8942 6.882911,0 0,1.8594 -5.262763,0 -0.369698,4.3167 q 0.358824,-0.25 0.880751,-0.4675 0.532801,-0.2175 1.228703,-0.2175 0.924246,0 1.663642,0.3806 0.739397,0.3697 1.239577,1.0656 0.511053,0.685 0.78289,1.6636 0.271837,0.9786 0.271837,2.1856 0,1.1417 -0.271837,2.1095 -0.260964,0.9568 -0.804637,1.6636 -0.532801,0.6959 -1.337438,1.0982 -0.804637,0.3915 -1.881112,0.3915 -0.81551,0 -1.544033,-0.261 -0.71765,-0.2718 -1.283071,-0.8155 -0.554547,-0.5437 -0.913372,-1.3701 -0.358824,-0.8264 -0.445812,-1.9354 l 1.804997,0 q 0.163102,1.3591 0.772017,2.055 0.619788,0.6851 1.609274,0.6851 0.554548,0 1.00036,-0.2501 0.445813,-0.2501 0.75027,-0.7177 0.304458,-0.4675 0.46756,-1.1308 0.163102,-0.6742 0.163102,-1.5006 0,-0.7394 -0.173976,-1.3809 -0.163102,-0.6415 -0.478433,-1.1091 -0.315331,-0.4784 -0.793764,-0.7502 -0.467559,-0.2719 -1.0656,-0.2719 -0.413192,0 -0.706776,0.076 -0.282711,0.065 -0.511054,0.1958 -0.217469,0.1304 -0.413192,0.3262 -0.195722,0.1848 -0.413192,0.4131 l -1.53316,-0.4131 z"
         style="font-size:22.26888084px;fill:#ffffff"
         id="path4231"
         inkscape:connector-curvature="0" />
      <path
         d="m 78.848467,1048.7672 q 0,-0.522 0.304457,-0.8699 0.315331,-0.348 0.935119,-0.348 0.619788,0 0.935119,0.348 0.326205,0.3479 0.326205,0.8699 0,0.5001 -0.326205,0.8372 -0.315331,0.3371 -0.935119,0.3371 -0.619788,0 -0.935119,-0.3371 -0.304457,-0.3371 -0.304457,-0.8372 z"
         style="font-size:22.26888084px;fill:#ffffff"
         id="path4233"
         inkscape:connector-curvature="0" />
      <path
         d="m 92.886126,1043.0695 q 0,1.9463 -0.304458,3.2838 -0.293584,1.3265 -0.848131,2.1529 -0.543674,0.8155 -1.326564,1.1743 -0.782891,0.3589 -1.75063,0.3589 -0.956866,0 -1.739756,-0.3589 -0.782891,-0.3588 -1.348311,-1.1743 -0.554548,-0.8264 -0.859005,-2.1529 -0.304458,-1.3375 -0.304458,-3.2838 l 0,-2.4139 q 0,-1.9464 0.304458,-3.2621 0.304457,-1.3157 0.859005,-2.1203 0.554547,-0.8047 1.326564,-1.1526 0.78289,-0.348 1.739756,-0.348 0.967739,0 1.75063,0.348 0.78289,0.3479 1.337437,1.1526 0.554548,0.8046 0.859005,2.1203 0.304458,1.3157 0.304458,3.2621 l 0,2.4139 z m -1.924606,-2.751 q 0,-1.3375 -0.152229,-2.2726 -0.152228,-0.9351 -0.445812,-1.5114 -0.293584,-0.5872 -0.728523,-0.8481 -0.434939,-0.261 -1.00036,-0.261 -0.554547,0 -0.989486,0.261 -0.424066,0.2609 -0.71765,0.8481 -0.293584,0.5763 -0.456686,1.5114 -0.152229,0.9351 -0.152229,2.2726 l 0,3.0663 q 0,1.3266 0.152229,2.2834 0.163102,0.946 0.456686,1.5549 0.304457,0.6089 0.739397,0.8917 0.434939,0.2827 0.989486,0.2827 0.565421,0 1.00036,-0.2827 0.434939,-0.2828 0.717649,-0.8917 0.293584,-0.6089 0.434939,-1.5549 0.152229,-0.9568 0.152229,-2.2834 l 0,-3.0663 z"
         style="font-size:22.26888084px;fill:#ffffff"
         id="path4235"
         inkscape:connector-curvature="0" />
      <path
         d="m 103.89009,1043.0695 q 0,1.9463 -0.30446,3.2838 -0.29359,1.3265 -0.84813,2.1529 -0.54368,0.8155 -1.32657,1.1743 -0.78289,0.3589 -1.750627,0.3589 -0.956866,0 -1.739757,-0.3589 -0.78289,-0.3588 -1.348311,-1.1743 -0.554547,-0.8264 -0.859005,-2.1529 -0.304457,-1.3375 -0.304457,-3.2838 l 0,-2.4139 q 0,-1.9464 0.304457,-3.2621 0.304458,-1.3157 0.859005,-2.1203 0.554548,-0.8047 1.326564,-1.1526 0.782891,-0.348 1.739757,-0.348 0.967744,0 1.750634,0.348 0.78289,0.3479 1.33743,1.1526 0.55455,0.8046 0.85901,2.1203 0.30446,1.3157 0.30446,3.2621 l 0,2.4139 z m -1.92461,-2.751 q 0,-1.3375 -0.15223,-2.2726 -0.15223,-0.9351 -0.44581,-1.5114 -0.29359,-0.5872 -0.72852,-0.8481 -0.43494,-0.261 -1.000364,-0.261 -0.554548,0 -0.989487,0.261 -0.424065,0.2609 -0.717649,0.8481 -0.293584,0.5763 -0.456686,1.5114 -0.152229,0.9351 -0.152229,2.2726 l 0,3.0663 q 0,1.3266 0.152229,2.2834 0.163102,0.946 0.456686,1.5549 0.304457,0.6089 0.739396,0.8917 0.434939,0.2827 0.989487,0.2827 0.565417,0 1.000357,-0.2827 0.43494,-0.2828 0.71765,-0.8917 0.29359,-0.6089 0.43494,-1.5549 0.15223,-0.9568 0.15223,-2.2834 l 0,-3.0663 z"
         style="font-size:22.26888084px;fill:#ffffff"
         id="path4237"
         inkscape:connector-curvature="0" />
      <path
         d="m 110.11974,1044.6267 q 0,-1.1711 0.22894,-2.0253 0.22894,-0.8541 0.6428,-1.4 0.42266,-0.5548 1.01262,-0.8189 0.58997,-0.2642 1.30321,-0.2642 0.71324,0 1.23276,0.2906 0.52833,0.2818 0.89816,0.8189 l 0,-4.9311 1.55856,0 0,13.5252 -1.42648,0 -0.0793,-1.0214 q -0.36983,0.5811 -0.90696,0.8893 -0.53713,0.3082 -1.2856,0.3082 -0.70443,0 -1.2944,-0.273 -0.58115,-0.2817 -1.00382,-0.8365 -0.41385,-0.5547 -0.6516,-1.3912 -0.22894,-0.8454 -0.22894,-1.9813 l 0,-0.8893 z m 1.55856,0.8893 q 0,1.6026 0.4755,2.3599 0.47549,0.7485 1.54975,0.7485 0.65161,0 1.06546,-0.3258 0.41386,-0.3258 0.66922,-0.8454 l 0,-4.8077 q -0.26417,-0.5019 -0.68683,-0.8189 -0.41385,-0.3258 -1.03904,-0.3258 -1.08307,0 -1.55856,0.766 -0.4755,0.7661 -0.4755,2.3599 l 0,0.8893 z"
         style="font-style:normal;font-variant:normal;font-weight:normal;font-stretch:normal;font-size:18.03353882px;font-family:'Roboto Condensed';-inkscape-font-specification:'Roboto Condensed, ';fill:#ffffff"
         id="path4239"
         inkscape:connector-curvature="0" />
      <path
         d="m 122.79957,1049.998 q -0.85412,0 -1.54095,-0.2554 -0.68682,-0.2553 -1.17112,-0.7748 -0.47549,-0.5284 -0.73085,-1.3297 -0.25536,-0.8013 -0.25536,-1.8931 l 0,-1.0743 q 0,-1.2592 0.29938,-2.1221 0.29939,-0.8717 0.78369,-1.4089 0.4931,-0.5459 1.12709,-0.7837 0.634,-0.2377 1.31202,-0.2377 0.89815,0 1.53214,0.2994 0.63399,0.2906 1.03904,0.8629 0.40505,0.5724 0.58997,1.4089 0.18491,0.8365 0.18491,1.9284 l 0,0.9069 -5.31848,0 0,0.2202 q 0,1.5321 0.57235,2.2278 0.58116,0.6956 1.66423,0.6956 0.39624,0 0.71324,-0.079 0.31699,-0.079 0.58116,-0.2201 0.26416,-0.1497 0.4843,-0.3434 0.22013,-0.2025 0.41385,-0.4403 l 0.8101,0.9862 q -0.19372,0.273 -0.46669,0.5283 -0.27296,0.2554 -0.6516,0.4579 -0.37863,0.1937 -0.87174,0.317 -0.4843,0.1233 -1.10068,0.1233 z m -0.1761,-8.5413 q -0.40505,0 -0.74847,0.1233 -0.34341,0.1233 -0.60757,0.4403 -0.25536,0.3082 -0.41386,0.8365 -0.1585,0.5283 -0.19372,1.3296 l 3.75112,0 0,-0.2113 q -0.0264,-0.5548 -0.12328,-1.0126 -0.088,-0.4667 -0.29058,-0.8013 -0.19372,-0.3346 -0.52832,-0.5196 -0.33461,-0.1849 -0.84532,-0.1849 z"
         style="font-style:normal;font-variant:normal;font-weight:normal;font-stretch:normal;font-size:18.03353882px;font-family:'Roboto Condensed';-inkscape-font-specification:'Roboto Condensed, ';fill:#ffffff"
         id="path4241"
         inkscape:connector-curvature="0" />
      <path
         d="m 132.47675,1047.3828 q 0,-0.2642 -0.0969,-0.4755 -0.0969,-0.2201 -0.31699,-0.4139 -0.22014,-0.2025 -0.57235,-0.3962 -0.34342,-0.1937 -0.85413,-0.4227 -0.66041,-0.2729 -1.18874,-0.5371 -0.51952,-0.2642 -0.88054,-0.5812 -0.35222,-0.3258 -0.54594,-0.7396 -0.18491,-0.4227 -0.18491,-0.995 0,-0.5636 0.21133,-1.0567 0.22013,-0.4931 0.61638,-0.8541 0.39624,-0.3698 0.95099,-0.5812 0.55474,-0.2113 1.24156,-0.2113 0.72205,0 1.2944,0.2201 0.57236,0.2202 0.9686,0.6164 0.39625,0.3875 0.60758,0.9158 0.21133,0.5283 0.21133,1.1359 l -1.54976,0 q 0,-0.2906 -0.10567,-0.5636 -0.0969,-0.2817 -0.29938,-0.5019 -0.19372,-0.2201 -0.47549,-0.3522 -0.28178,-0.1321 -0.65161,-0.1321 -0.39624,0 -0.67802,0.1145 -0.27296,0.1057 -0.44907,0.2906 -0.17611,0.1761 -0.26417,0.4138 -0.0792,0.2378 -0.0792,0.4931 0,0.2642 0.0704,0.4579 0.0793,0.1849 0.26416,0.3522 0.18492,0.1673 0.50191,0.3346 0.3258,0.1673 0.82771,0.3875 0.72205,0.2818 1.27679,0.5723 0.56355,0.2818 0.94218,0.6252 0.37864,0.3346 0.57236,0.7661 0.19372,0.4315 0.19372,1.0038 0,0.6252 -0.22894,1.1359 -0.22014,0.5019 -0.634,0.863 -0.41385,0.3522 -0.99501,0.5459 -0.58116,0.1849 -1.28559,0.1849 -0.81011,0 -1.43529,-0.2466 -0.62519,-0.2553 -1.04785,-0.6692 -0.42266,-0.4226 -0.6428,-0.9686 -0.21133,-0.5459 -0.21133,-1.1359 l 1.56737,0 q 0.0176,0.5019 0.18492,0.8277 0.1673,0.3258 0.41385,0.5196 0.25536,0.1937 0.56355,0.2729 0.30819,0.071 0.60758,0.071 0.77487,0 1.17992,-0.3434 0.40505,-0.3522 0.40505,-0.9422 z"
         style="font-style:normal;font-variant:normal;font-weight:normal;font-stretch:normal;font-size:18.03353882px;font-family:'Roboto Condensed';-inkscape-font-specification:'Roboto Condensed, ';fill:#ffffff"
         id="path4243"
         inkscape:connector-curvature="0" />
      <path
         d="m 142.97284,1045.516 q 0,2.263 -0.81891,3.3725 -0.8101,1.1095 -2.29822,1.1095 -0.74846,0 -1.2944,-0.273 -0.53713,-0.2817 -0.91576,-0.8101 l 0,4.5701 -1.54976,0 0,-13.1906 1.40887,0 0.0793,1.0567 q 0.37863,-0.5988 0.92457,-0.9158 0.55474,-0.317 1.32081,-0.317 0.76608,0 1.34724,0.2642 0.58996,0.2641 0.98621,0.8189 0.39624,0.5459 0.59877,1.4 0.21133,0.8542 0.21133,2.0253 l 0,0.8893 z m -1.54976,-0.8893 q 0,-1.6026 -0.49311,-2.3599 -0.4931,-0.766 -1.58497,-0.766 -0.60758,0 -1.03024,0.3169 -0.41386,0.3082 -0.66921,0.8013 l 0,4.9575 q 0.25535,0.4843 0.6604,0.7925 0.40505,0.2994 1.05666,0.2994 1.06545,0 1.55856,-0.7749 0.50191,-0.7749 0.50191,-2.3775 l 0,-0.8893 z"
         style="font-style:normal;font-variant:normal;font-weight:normal;font-stretch:normal;font-size:18.03353882px;font-family:'Roboto Condensed';-inkscape-font-specification:'Roboto Condensed, ';fill:#ffffff"
         id="path4245"
         inkscape:connector-curvature="0" />
      <path
         d="m 149.82347,1048.9854 q -0.36983,0.4843 -0.93338,0.7484 -0.55474,0.2642 -1.32962,0.2642 -0.58996,0 -1.07426,-0.1937 -0.4843,-0.2025 -0.82771,-0.6252 -0.34341,-0.4315 -0.53713,-1.1007 -0.18492,-0.678 -0.18492,-1.629 l 0,-6.155 1.54976,0 0,6.1726 q 0,0.6428 0.11447,1.0655 0.12328,0.4138 0.30819,0.6604 0.19372,0.2377 0.43147,0.3346 0.24655,0.088 0.4843,0.088 0.77487,0 1.24156,-0.3434 0.46669,-0.3434 0.71324,-0.9245 l 0,-7.0532 1.55857,0 0,9.5275 -1.47932,0 -0.0352,-0.8365 z"
         style="font-style:normal;font-variant:normal;font-weight:normal;font-stretch:normal;font-size:18.03353882px;font-family:'Roboto Condensed';-inkscape-font-specification:'Roboto Condensed, ';fill:#ffffff"
         id="path4247"
         inkscape:connector-curvature="0" />
      <path
         d="m 157.10557,1049.998 q -0.85413,0 -1.54096,-0.2554 -0.68682,-0.2553 -1.17112,-0.7748 -0.47549,-0.5284 -0.73085,-1.3297 -0.25536,-0.8013 -0.25536,-1.8931 l 0,-1.0743 q 0,-1.2592 0.29939,-2.1221 0.29938,-0.8717 0.78368,-1.4089 0.49311,-0.5459 1.1271,-0.7837 0.63399,-0.2377 1.31201,-0.2377 0.89815,0 1.53214,0.2994 0.634,0.2906 1.03905,0.8629 0.40505,0.5724 0.58996,1.4089 0.18491,0.8365 0.18491,1.9284 l 0,0.9069 -5.31848,0 0,0.2202 q 0,1.5321 0.57235,2.2278 0.58116,0.6956 1.66423,0.6956 0.39625,0 0.71324,-0.079 0.317,-0.079 0.58116,-0.2201 0.26416,-0.1497 0.4843,-0.3434 0.22014,-0.2025 0.41385,-0.4403 l 0.81011,0.9862 q -0.19372,0.273 -0.46669,0.5283 -0.27297,0.2554 -0.65161,0.4579 -0.37863,0.1937 -0.87173,0.317 -0.4843,0.1233 -1.10068,0.1233 z m -0.17611,-8.5413 q -0.40505,0 -0.74846,0.1233 -0.34342,0.1233 -0.60758,0.4403 -0.25536,0.3082 -0.41386,0.8365 -0.15849,0.5283 -0.19372,1.3296 l 3.75112,0 0,-0.2113 q -0.0264,-0.5548 -0.12327,-1.0126 -0.0881,-0.4667 -0.29058,-0.8013 -0.19372,-0.3346 -0.52833,-0.5196 -0.33461,-0.1849 -0.84532,-0.1849 z m 0.75727,-5.1424 1.97241,0 -2.35985,2.5888 -1.31201,0 1.69945,-2.5888 z"
         style="font-style:normal;font-variant:normal;font-weight:normal;font-stretch:normal;font-size:18.03353882px;font-family:'Roboto Condensed';-inkscape-font-specification:'Roboto Condensed, ';fill:#ffffff"
         id="path4249"
         inkscape:connector-curvature="0" />
      <path
         d="m 166.78275,1047.3828 q 0,-0.2642 -0.0969,-0.4755 -0.0969,-0.2201 -0.317,-0.4139 -0.22014,-0.2025 -0.57235,-0.3962 -0.34341,-0.1937 -0.85413,-0.4227 -0.66041,-0.2729 -1.18873,-0.5371 -0.51953,-0.2642 -0.88055,-0.5812 -0.35222,-0.3258 -0.54594,-0.7396 -0.18491,-0.4227 -0.18491,-0.995 0,-0.5636 0.21133,-1.0567 0.22014,-0.4931 0.61638,-0.8541 0.39625,-0.3698 0.95099,-0.5812 0.55474,-0.2113 1.24157,-0.2113 0.72204,0 1.2944,0.2201 0.57235,0.2202 0.96859,0.6164 0.39625,0.3875 0.60758,0.9158 0.21133,0.5283 0.21133,1.1359 l -1.54976,0 q 0,-0.2906 -0.10566,-0.5636 -0.0969,-0.2817 -0.29939,-0.5019 -0.19372,-0.2201 -0.47549,-0.3522 -0.28178,-0.1321 -0.6516,-0.1321 -0.39625,0 -0.67802,0.1145 -0.27297,0.1057 -0.44908,0.2906 -0.17611,0.1761 -0.26416,0.4138 -0.0793,0.2378 -0.0793,0.4931 0,0.2642 0.0704,0.4579 0.0793,0.1849 0.26416,0.3522 0.18492,0.1673 0.50191,0.3346 0.32581,0.1673 0.82772,0.3875 0.72204,0.2818 1.27678,0.5723 0.56355,0.2818 0.94219,0.6252 0.37863,0.3346 0.57235,0.7661 0.19372,0.4315 0.19372,1.0038 0,0.6252 -0.22894,1.1359 -0.22014,0.5019 -0.63399,0.863 -0.41386,0.3522 -0.99502,0.5459 -0.58116,0.1849 -1.28559,0.1849 -0.8101,0 -1.43529,-0.2466 -0.62519,-0.2553 -1.04785,-0.6692 -0.42266,-0.4226 -0.64279,-0.9686 -0.21133,-0.5459 -0.21133,-1.1359 l 1.56736,0 q 0.0176,0.5019 0.18492,0.8277 0.1673,0.3258 0.41385,0.5196 0.25536,0.1937 0.56355,0.2729 0.30819,0.071 0.60758,0.071 0.77488,0 1.17993,-0.3434 0.40505,-0.3522 0.40505,-0.9422 z"
         style="font-style:normal;font-variant:normal;font-weight:normal;font-stretch:normal;font-size:18.03353882px;font-family:'Roboto Condensed';-inkscape-font-specification:'Roboto Condensed, ';fill:#ffffff"
         id="path4251"
         inkscape:connector-curvature="0" />
      <path
         d="m 174.18812,1044.6267 q 0,-1.1711 0.22894,-2.0253 0.22895,-0.8541 0.6428,-1.4 0.42266,-0.5548 1.01263,-0.8189 0.58996,-0.2642 1.3032,-0.2642 0.71324,0 1.23276,0.2906 0.52833,0.2818 0.89816,0.8189 l 0,-4.9311 1.55856,0 0,13.5252 -1.42648,0 -0.0793,-1.0214 q -0.36983,0.5811 -0.90696,0.8893 -0.53713,0.3082 -1.28559,0.3082 -0.70444,0 -1.2944,-0.273 -0.58116,-0.2817 -1.00382,-0.8365 -0.41386,-0.5547 -0.65161,-1.3912 -0.22894,-0.8454 -0.22894,-1.9813 l 0,-0.8893 z m 1.55857,0.8893 q 0,1.6026 0.47549,2.3599 0.47549,0.7485 1.54976,0.7485 0.6516,0 1.06545,-0.3258 0.41386,-0.3258 0.66922,-0.8454 l 0,-4.8077 q -0.26417,-0.5019 -0.68683,-0.8189 -0.41385,-0.3258 -1.03904,-0.3258 -1.08307,0 -1.55856,0.766 -0.47549,0.7661 -0.47549,2.3599 l 0,0.8893 z"
         style="font-style:normal;font-variant:normal;font-weight:normal;font-stretch:normal;font-size:18.03353882px;font-family:'Roboto Condensed';-inkscape-font-specification:'Roboto Condensed, ';fill:#ffffff"
         id="path4253"
         inkscape:connector-curvature="0" />
      <path
         d="m 186.86795,1049.998 q -0.85413,0 -1.54095,-0.2554 -0.68683,-0.2553 -1.17113,-0.7748 -0.47549,-0.5284 -0.73085,-1.3297 -0.25536,-0.8013 -0.25536,-1.8931 l 0,-1.0743 q 0,-1.2592 0.29939,-2.1221 0.29938,-0.8717 0.78368,-1.4089 0.49311,-0.5459 1.1271,-0.7837 0.63399,-0.2377 1.31201,-0.2377 0.89815,0 1.53215,0.2994 0.63399,0.2906 1.03904,0.8629 0.40505,0.5724 0.58996,1.4089 0.18492,0.8365 0.18492,1.9284 l 0,0.9069 -5.31849,0 0,0.2202 q 0,1.5321 0.57236,2.2278 0.58115,0.6956 1.66422,0.6956 0.39625,0 0.71324,-0.079 0.317,-0.079 0.58116,-0.2201 0.26417,-0.1497 0.4843,-0.3434 0.22014,-0.2025 0.41386,-0.4403 l 0.8101,0.9862 q -0.19372,0.273 -0.46669,0.5283 -0.27297,0.2554 -0.6516,0.4579 -0.37864,0.1937 -0.87174,0.317 -0.4843,0.1233 -1.10068,0.1233 z m -0.17611,-8.5413 q -0.40505,0 -0.74846,0.1233 -0.34341,0.1233 -0.60758,0.4403 -0.25536,0.3082 -0.41385,0.8365 -0.1585,0.5283 -0.19372,1.3296 l 3.75111,0 0,-0.2113 q -0.0264,-0.5548 -0.12327,-1.0126 -0.0881,-0.4667 -0.29058,-0.8013 -0.19372,-0.3346 -0.52833,-0.5196 -0.3346,-0.1849 -0.84532,-0.1849 z"
         style="font-style:normal;font-variant:normal;font-weight:normal;font-stretch:normal;font-size:18.03353882px;font-family:'Roboto Condensed';-inkscape-font-specification:'Roboto Condensed, ';fill:#ffffff"
         id="path4255"
         inkscape:connector-curvature="0" />
      <path
         d="m 193.5953,1049.8219 -1.55856,0 0,-13.5252 1.55856,0 0,13.5252 z"
         style="font-style:normal;font-variant:normal;font-weight:normal;font-stretch:normal;font-size:18.03353882px;font-family:'Roboto Condensed';-inkscape-font-specification:'Roboto Condensed, ';fill:#ffffff"
         id="path4257"
         inkscape:connector-curvature="0" />
      <path
         d="m 207.1909,1049.8219 -7.16762,0 0,-1.1711 3.52217,-4.6669 q 0.4843,-0.6428 0.79249,-1.1359 0.317,-0.4931 0.49311,-0.8982 0.18491,-0.4138 0.24655,-0.766 0.0704,-0.3611 0.0704,-0.7309 0,-0.4755 -0.11447,-0.8893 -0.11447,-0.4227 -0.33461,-0.7309 -0.22013,-0.3082 -0.54593,-0.4843 -0.317,-0.1849 -0.73085,-0.1849 -0.53714,0 -0.92458,0.1937 -0.37863,0.1937 -0.63399,0.5371 -0.24655,0.3435 -0.36983,0.8278 -0.11447,0.4754 -0.11447,1.0566 l -1.55856,0 q 0,-0.8101 0.22894,-1.5321 0.22894,-0.7221 0.67802,-1.2592 0.44908,-0.5371 1.11829,-0.8453 0.67802,-0.317 1.57618,-0.317 0.77487,0 1.38245,0.2465 0.61638,0.2466 1.03904,0.7045 0.42266,0.449 0.6428,1.083 0.22894,0.634 0.22894,1.4001 0,0.5635 -0.1585,1.1359 -0.14969,0.5723 -0.42266,1.1447 -0.27297,0.5635 -0.63399,1.1271 -0.36102,0.5547 -0.76607,1.0919 l -2.85297,3.7335 5.30968,0 0,1.3296 z"
         style="font-style:normal;font-variant:normal;font-weight:normal;font-stretch:normal;font-size:18.03353882px;font-family:'Roboto Condensed';-inkscape-font-specification:'Roboto Condensed, ';fill:#ffffff"
         id="path4259"
         inkscape:connector-curvature="0" />
      <path
         d="m 210.88919,1042.619 1.01263,0 q 0.50191,0 0.87173,-0.1673 0.37864,-0.1673 0.61639,-0.4578 0.24655,-0.2994 0.36982,-0.6957 0.12328,-0.405 0.12328,-0.8805 0,-1.1007 -0.44027,-1.673 -0.43147,-0.5812 -1.30321,-0.5812 -0.41385,0 -0.74846,0.1585 -0.3258,0.1497 -0.55474,0.4403 -0.22894,0.2817 -0.36102,0.6956 -0.12328,0.405 -0.12328,0.907 l -1.54976,0 q 0,-0.7397 0.22894,-1.3825 0.23775,-0.6428 0.66922,-1.1183 0.44027,-0.4843 1.05665,-0.7573 0.61638,-0.2817 1.38245,-0.2817 0.73966,0 1.33843,0.2377 0.60757,0.229 1.03904,0.6868 0.44027,0.4491 0.67802,1.1271 0.23775,0.6781 0.23775,1.5762 0,0.361 -0.0969,0.7573 -0.0881,0.3962 -0.29058,0.7749 -0.20253,0.3786 -0.51952,0.7132 -0.30819,0.3258 -0.75727,0.5459 0.54594,0.2026 0.89815,0.5372 0.35222,0.3258 0.55475,0.7308 0.20252,0.4051 0.28177,0.8541 0.0793,0.4491 0.0793,0.8806 0,0.8981 -0.26416,1.6026 -0.26417,0.6956 -0.73086,1.1711 -0.45788,0.4755 -1.09187,0.7308 -0.62519,0.2466 -1.36484,0.2466 -0.72205,0 -1.34723,-0.2289 -0.61639,-0.2378 -1.07427,-0.6869 -0.45788,-0.4578 -0.72204,-1.1183 -0.25536,-0.6692 -0.25536,-1.5233 l 1.55856,0 q 0,0.5019 0.12328,0.9158 0.12327,0.405 0.36102,0.7044 0.23775,0.2906 0.57235,0.4491 0.34342,0.1585 0.78369,0.1585 0.87174,0 1.38245,-0.59 0.51952,-0.5899 0.51952,-1.7963 0,-1.1975 -0.57235,-1.7611 -0.57235,-0.5723 -1.55856,-0.5723 l -1.01263,0 0,-1.3297 z"
         style="font-style:normal;font-variant:normal;font-weight:normal;font-stretch:normal;font-size:18.03353882px;font-family:'Roboto Condensed';-inkscape-font-specification:'Roboto Condensed, ';fill:#ffffff"
         id="path4261"
         inkscape:connector-curvature="0" />
      <path
         d="m 221.73749,1044.6267 q 0,-1.1711 0.22894,-2.0253 0.22894,-0.8541 0.64279,-1.4 0.42266,-0.5548 1.01263,-0.8189 0.58996,-0.2642 1.3032,-0.2642 0.71324,0 1.23277,0.2906 0.52832,0.2818 0.89815,0.8189 l 0,-4.9311 1.55856,0 0,13.5252 -1.42648,0 -0.0793,-1.0214 q -0.36983,0.5811 -0.90696,0.8893 -0.53713,0.3082 -1.28559,0.3082 -0.70444,0 -1.2944,-0.273 -0.58116,-0.2817 -1.00382,-0.8365 -0.41386,-0.5547 -0.6516,-1.3912 -0.22894,-0.8454 -0.22894,-1.9813 l 0,-0.8893 z m 1.55856,0.8893 q 0,1.6026 0.47549,2.3599 0.4755,0.7485 1.54976,0.7485 0.6516,0 1.06546,-0.3258 0.41385,-0.3258 0.66921,-0.8454 l 0,-4.8077 q -0.26416,-0.5019 -0.68682,-0.8189 -0.41386,-0.3258 -1.03905,-0.3258 -1.08306,0 -1.55856,0.766 -0.47549,0.7661 -0.47549,2.3599 l 0,0.8893 z"
         style="font-style:normal;font-variant:normal;font-weight:normal;font-stretch:normal;font-size:18.03353882px;font-family:'Roboto Condensed';-inkscape-font-specification:'Roboto Condensed, ';fill:#ffffff"
         id="path4263"
         inkscape:connector-curvature="0" />
      <path
         d="m 234.41733,1049.998 q -0.85413,0 -1.54096,-0.2554 -0.68682,-0.2553 -1.17112,-0.7748 -0.47549,-0.5284 -0.73085,-1.3297 -0.25536,-0.8013 -0.25536,-1.8931 l 0,-1.0743 q 0,-1.2592 0.29939,-2.1221 0.29938,-0.8717 0.78368,-1.4089 0.49311,-0.5459 1.1271,-0.7837 0.63399,-0.2377 1.31201,-0.2377 0.89815,0 1.53214,0.2994 0.634,0.2906 1.03905,0.8629 0.40505,0.5724 0.58996,1.4089 0.18491,0.8365 0.18491,1.9284 l 0,0.9069 -5.31848,0 0,0.2202 q 0,1.5321 0.57235,2.2278 0.58116,0.6956 1.66423,0.6956 0.39625,0 0.71324,-0.079 0.317,-0.079 0.58116,-0.2201 0.26416,-0.1497 0.4843,-0.3434 0.22014,-0.2025 0.41385,-0.4403 l 0.81011,0.9862 q -0.19372,0.273 -0.46669,0.5283 -0.27297,0.2554 -0.65161,0.4579 -0.37863,0.1937 -0.87173,0.317 -0.4843,0.1233 -1.10068,0.1233 z m -0.17611,-8.5413 q -0.40505,0 -0.74846,0.1233 -0.34342,0.1233 -0.60758,0.4403 -0.25536,0.3082 -0.41386,0.8365 -0.15849,0.5283 -0.19372,1.3296 l 3.75112,0 0,-0.2113 q -0.0264,-0.5548 -0.12327,-1.0126 -0.0881,-0.4667 -0.29058,-0.8013 -0.19372,-0.3346 -0.52833,-0.5196 -0.33461,-0.1849 -0.84532,-0.1849 z"
         style="font-style:normal;font-variant:normal;font-weight:normal;font-stretch:normal;font-size:18.03353882px;font-family:'Roboto Condensed';-inkscape-font-specification:'Roboto Condensed, ';fill:#ffffff"
         id="path4265"
         inkscape:connector-curvature="0" />
      <path
         d="m 248.21544,1047.3828 q 0,-0.2642 -0.0969,-0.4755 -0.0969,-0.2201 -0.317,-0.4139 -0.22013,-0.2025 -0.57235,-0.3962 -0.34341,-0.1937 -0.85413,-0.4227 -0.6604,-0.2729 -1.18873,-0.5371 -0.51952,-0.2642 -0.88054,-0.5812 -0.35222,-0.3258 -0.54594,-0.7396 -0.18492,-0.4227 -0.18492,-0.995 0,-0.5636 0.21133,-1.0567 0.22014,-0.4931 0.61638,-0.8541 0.39625,-0.3698 0.95099,-0.5812 0.55474,-0.2113 1.24157,-0.2113 0.72205,0 1.2944,0.2201 0.57235,0.2202 0.9686,0.6164 0.39624,0.3875 0.60757,0.9158 0.21133,0.5283 0.21133,1.1359 l -1.54975,0 q 0,-0.2906 -0.10567,-0.5636 -0.0969,-0.2817 -0.29938,-0.5019 -0.19372,-0.2201 -0.4755,-0.3522 -0.28177,-0.1321 -0.6516,-0.1321 -0.39625,0 -0.67802,0.1145 -0.27297,0.1057 -0.44908,0.2906 -0.17611,0.1761 -0.26416,0.4138 -0.0793,0.2378 -0.0793,0.4931 0,0.2642 0.0704,0.4579 0.0793,0.1849 0.26417,0.3522 0.18491,0.1673 0.50191,0.3346 0.3258,0.1673 0.82771,0.3875 0.72204,0.2818 1.27679,0.5723 0.56355,0.2818 0.94218,0.6252 0.37863,0.3346 0.57235,0.7661 0.19372,0.4315 0.19372,1.0038 0,0.6252 -0.22894,1.1359 -0.22013,0.5019 -0.63399,0.863 -0.41386,0.3522 -0.99502,0.5459 -0.58115,0.1849 -1.28559,0.1849 -0.8101,0 -1.43529,-0.2466 -0.62518,-0.2553 -1.04784,-0.6692 -0.42266,-0.4226 -0.6428,-0.9686 -0.21133,-0.5459 -0.21133,-1.1359 l 1.56737,0 q 0.0176,0.5019 0.18491,0.8277 0.16731,0.3258 0.41386,0.5196 0.25536,0.1937 0.56355,0.2729 0.30819,0.071 0.60757,0.071 0.77488,0 1.17993,-0.3434 0.40505,-0.3522 0.40505,-0.9422 z"
         style="font-style:normal;font-variant:normal;font-weight:normal;font-stretch:normal;font-size:18.03353882px;font-family:'Roboto Condensed';-inkscape-font-specification:'Roboto Condensed, ';fill:#ffffff"
         id="path4267"
         inkscape:connector-curvature="0" />
      <path
         d="m 255.23338,1049.998 q -0.85413,0 -1.54095,-0.2554 -0.68682,-0.2553 -1.17112,-0.7748 -0.4755,-0.5284 -0.73086,-1.3297 -0.25535,-0.8013 -0.25535,-1.8931 l 0,-1.0743 q 0,-1.2592 0.29938,-2.1221 0.29939,-0.8717 0.78369,-1.4089 0.4931,-0.5459 1.12709,-0.7837 0.63399,-0.2377 1.31201,-0.2377 0.89816,0 1.53215,0.2994 0.63399,0.2906 1.03904,0.8629 0.40505,0.5724 0.58997,1.4089 0.18491,0.8365 0.18491,1.9284 l 0,0.9069 -5.31849,0 0,0.2202 q 0,1.5321 0.57236,2.2278 0.58116,0.6956 1.66423,0.6956 0.39624,0 0.71324,-0.079 0.31699,-0.079 0.58116,-0.2201 0.26416,-0.1497 0.48429,-0.3434 0.22014,-0.2025 0.41386,-0.4403 l 0.8101,0.9862 q -0.19372,0.273 -0.46669,0.5283 -0.27297,0.2554 -0.6516,0.4579 -0.37863,0.1937 -0.87174,0.317 -0.4843,0.1233 -1.10068,0.1233 z m -0.17611,-8.5413 q -0.40505,0 -0.74846,0.1233 -0.34341,0.1233 -0.60757,0.4403 -0.25536,0.3082 -0.41386,0.8365 -0.1585,0.5283 -0.19372,1.3296 l 3.75112,0 0,-0.2113 q -0.0264,-0.5548 -0.12328,-1.0126 -0.0881,-0.4667 -0.29058,-0.8013 -0.19372,-0.3346 -0.52833,-0.5196 -0.3346,-0.1849 -0.84532,-0.1849 z"
         style="font-style:normal;font-variant:normal;font-weight:normal;font-stretch:normal;font-size:18.03353882px;font-family:'Roboto Condensed';-inkscape-font-specification:'Roboto Condensed, ';fill:#ffffff"
         id="path4269"
         inkscape:connector-curvature="0" />
      <path
         d="m 267.16475,1045.516 q 0,2.263 -0.81891,3.3725 -0.8101,1.1095 -2.29822,1.1095 -0.74846,0 -1.2944,-0.273 -0.53713,-0.2817 -0.91576,-0.8101 l 0,4.5701 -1.54976,0 0,-13.1906 1.40887,0 0.0793,1.0567 q 0.37863,-0.5988 0.92457,-0.9158 0.55474,-0.317 1.32081,-0.317 0.76608,0 1.34724,0.2642 0.58996,0.2641 0.98621,0.8189 0.39624,0.5459 0.59877,1.4 0.21133,0.8542 0.21133,2.0253 l 0,0.8893 z m -1.54976,-0.8893 q 0,-1.6026 -0.49311,-2.3599 -0.4931,-0.766 -1.58497,-0.766 -0.60758,0 -1.03024,0.3169 -0.41386,0.3082 -0.66921,0.8013 l 0,4.9575 q 0.25535,0.4843 0.6604,0.7925 0.40505,0.2994 1.05666,0.2994 1.06545,0 1.55856,-0.7749 0.50191,-0.7749 0.50191,-2.3775 l 0,-0.8893 z"
         style="font-style:normal;font-variant:normal;font-weight:normal;font-stretch:normal;font-size:18.03353882px;font-family:'Roboto Condensed';-inkscape-font-specification:'Roboto Condensed, ';fill:#ffffff"
         id="path4271"
         inkscape:connector-curvature="0" />
      <path
         d="m 269.26044,1048.9678 q 0,-0.4227 0.24656,-0.7045 0.25535,-0.2817 0.75726,-0.2817 0.50191,0 0.75727,0.2817 0.26416,0.2818 0.26416,0.7045 0,0.405 -0.26416,0.678 -0.25536,0.273 -0.75727,0.273 -0.50191,0 -0.75726,-0.273 -0.24656,-0.273 -0.24656,-0.678 z"
         style="font-style:normal;font-variant:normal;font-weight:normal;font-stretch:normal;font-size:18.03353882px;font-family:'Roboto Condensed';-inkscape-font-specification:'Roboto Condensed, ';fill:#ffffff"
         id="path4273"
         inkscape:connector-curvature="0" />
    </g>
    <rect
       style="fill:#a3d12d;fill-opacity:1;fill-rule:nonzero;stroke:none"
       id="rect14758-6"
       width="5.0999866"
       height="128.67715"
       x="2.1559427"
       y="918.59497" />
  </g>
</svg>
