<?xml version="1.0" encoding="UTF-8" standalone="no"?>
<!-- Created with Inkscape (http://www.inkscape.org/) -->

<svg
   xmlns:dc="http://purl.org/dc/elements/1.1/"
   xmlns:cc="http://creativecommons.org/ns#"
   xmlns:rdf="http://www.w3.org/1999/02/22-rdf-syntax-ns#"
   xmlns:svg="http://www.w3.org/2000/svg"
   xmlns="http://www.w3.org/2000/svg"
   xmlns:sodipodi="http://sodipodi.sourceforge.net/DTD/sodipodi-0.dtd"
   xmlns:inkscape="http://www.inkscape.org/namespaces/inkscape"
   width="350"
   height="150"
   viewBox="0 0 350 150"
   id="svg18947"
   version="1.1"
   inkscape:version="0.91 r13725"
   sodipodi:docname="info-c.svg">
  <defs
     id="defs18949" />
  <sodipodi:namedview
     id="base"
     pagecolor="#ffffff"
     bordercolor="#666666"
     borderopacity="1.0"
     inkscape:pageopacity="0.0"
     inkscape:pageshadow="2"
     inkscape:zoom="1.0610016"
     inkscape:cx="-19.791862"
     inkscape:cy="67.597288"
     inkscape:document-units="px"
     inkscape:current-layer="layer1"
     showgrid="false"
     units="px"
     inkscape:window-width="1366"
     inkscape:window-height="705"
     inkscape:window-x="-8"
     inkscape:window-y="-8"
     inkscape:window-maximized="1" />
  <metadata
     id="metadata18952">
    <rdf:RDF>
      <cc:Work
         rdf:about="">
        <dc:format>image/svg+xml</dc:format>
        <dc:type
           rdf:resource="http://purl.org/dc/dcmitype/StillImage" />
        <dc:title></dc:title>
      </cc:Work>
    </rdf:RDF>
  </metadata>
  <g
     inkscape:label="Capa 1"
     inkscape:groupmode="layer"
     id="layer1"
     transform="translate(0,-902.36216)">
    <g
       id="g4262"
       transform="translate(-90,0)"
       style="fill:#ffffff">
      <path
         d="m 222.91868,921.48884 q -0.46329,-1.62148 -0.46329,-3.88642 0,-4.91594 1.80166,-7.79859 1.82739,-2.90838 6.94923,-2.90838 6.5889,0 7.77284,6.33152 0.51475,2.72822 0.51475,6.87202 l 0,2.67675 -5.0961,0 0,-3.03707 q 0,-4.32397 -0.43754,-5.81677 -0.43755,-1.4928 -1.08099,-1.98182 -0.64345,-0.48902 -1.67296,-0.48902 -1.93035,0 -2.7797,1.41559 -0.84935,1.41558 -0.84935,4.19528 0,2.77969 0.77214,4.06659 0.77213,1.2869 1.9046,2.47084 1.13247,1.1582 1.26116,1.31262 l 3.08854,3.26872 q 5.5594,5.81676 5.5594,13.02338 0,5.86824 -1.82739,8.98252 -1.80166,3.08856 -6.89777,3.08856 -6.15135,0 -7.79858,-5.40497 -0.9523,-3.03707 -0.9523,-7.953 0,-0.12866 0,-0.25739 l 0,-4.40118 5.17332,0 0,4.60709 q 0,4.96741 0.72066,6.92349 0.72067,1.93035 2.67674,1.93035 1.95608,0 2.70248,-0.90083 0.7464,-0.92656 0.84935,-2.80543 0.12866,-1.87887 0.12866,-4.22102 0,-4.71004 -4.14382,-8.85384 l -2.95985,-2.95985 q -3.96364,-4.0666 -4.91593,-7.48974 z"
         style="font-style:normal;font-variant:normal;font-weight:normal;font-stretch:ultra-condensed;font-size:37.89782333px;line-height:125%;font-family:Antonio;-inkscape-font-specification:'Antonio Ultra-Condensed';text-align:end;letter-spacing:0px;word-spacing:0px;text-anchor:end;fill:#ffffff;fill-opacity:1;stroke:none"
         id="path4139"
         inkscape:connector-curvature="0" />
      <path
         d="m 245.87687,907.46169 13.53815,0 0,4.42691 -8.21039,0 0,15.49422 7.77285,0 0,4.42693 -7.77285,0 0,16.52373 8.31334,0 0,4.42691 -13.6411,0 0,-45.2987 z"
         style="font-style:normal;font-variant:normal;font-weight:normal;font-stretch:ultra-condensed;font-size:37.89782333px;line-height:125%;font-family:Antonio;-inkscape-font-specification:'Antonio Ultra-Condensed';text-align:end;letter-spacing:0px;word-spacing:0px;text-anchor:end;fill:#ffffff;fill-opacity:1;stroke:none"
         id="path4141"
         inkscape:connector-curvature="0" />
      <path
         d="m 265.7208,907.46169 8.51925,0 q 5.19905,0 7.15513,3.21724 1.95609,3.19149 1.95609,9.08547 l 0.0257,19.8954 q 0,6.97498 -2.13624,10.03779 -2.13625,3.0628 -7.18087,3.0628 l -8.33909,0 0,-45.2987 z m 12.32846,12.17403 q 0,-4.24675 -1.00379,-6.09989 -1.00376,-1.85313 -3.29444,-1.85313 l -2.72822,0 0,36.77947 2.72822,0 q 1.54428,0 2.41936,-0.61772 1.87887,-1.33837 1.87887,-7.36104 l 0,-20.84769 z"
         style="font-style:normal;font-variant:normal;font-weight:normal;font-stretch:ultra-condensed;font-size:37.89782333px;line-height:125%;font-family:Antonio;-inkscape-font-specification:'Antonio Ultra-Condensed';text-align:end;letter-spacing:0px;word-spacing:0px;text-anchor:end;fill:#ffffff;fill-opacity:1;stroke:none"
         id="path4143"
         inkscape:connector-curvature="0" />
      <path
         d="m 290.14606,907.46169 13.53815,0 0,4.42691 -8.21039,0 0,15.49422 7.77283,0 0,4.42693 -7.77283,0 0,16.52373 8.31334,0 0,4.42691 -13.6411,0 0,-45.2987 z"
         style="font-style:normal;font-variant:normal;font-weight:normal;font-stretch:ultra-condensed;font-size:37.89782333px;line-height:125%;font-family:Antonio;-inkscape-font-specification:'Antonio Ultra-Condensed';text-align:end;letter-spacing:0px;word-spacing:0px;text-anchor:end;fill:#ffffff;fill-opacity:1;stroke:none"
         id="path4145"
         inkscape:connector-curvature="0" />
    </g>
    <g
       id="g4268"
       transform="translate(18,0)"
       style="fill:#ffffff">
      <path
         d="m 24.42497,1000.648 q -0.333898,0.4452 -0.908947,1.0945 -0.556497,0.6306 -1.502542,1.2242 -0.946046,0.5752 -2.337289,1.0017 -1.372694,0.4081 -3.338986,0.4081 -2.09614,0 -3.839832,-0.7049 -1.725142,-0.7049 -2.967986,-2.1147 -1.2428443,-1.4098 -1.9291911,-3.54295 Q 6.91385,995.88076 6.91385,993.04254 l 0,-5.08269 q 0,-11.33396 9.070908,-11.33396 1.966291,0 3.487384,0.57504 1.539643,0.55651 2.596988,1.63241 1.057346,1.05734 1.650943,2.59704 0.593597,1.53956 0.704897,3.48735 l -3.394635,0 q -0.204049,-2.52278 -1.409793,-3.93257 -1.187195,-1.42843 -3.617234,-1.42843 -1.558193,0 -2.634088,0.51949 -1.075895,0.51936 -1.762241,1.5767 -0.667798,1.03885 -0.983146,2.61555 -0.296799,1.5582 -0.296799,3.65425 l 0,5.11982 q 0,2.15182 0.426648,3.74716 0.426648,1.5952 1.205745,2.63404 0.797646,1.03886 1.910641,1.55816 1.112995,0.5009 2.485688,0.5009 1.168646,0 1.966292,-0.204 0.797646,-0.2041 1.317044,-0.5009 0.537947,-0.2968 0.853296,-0.5936 0.315348,-0.29684 0.537947,-0.50088 l 0,-6.2328 -4.934278,0 0,-2.89372 8.328913,0 0,10.0911 z"
         style="font-style:normal;font-variant:normal;font-weight:normal;font-stretch:normal;font-size:medium;line-height:125%;font-family:'Roboto Condensed';-inkscape-font-specification:'Roboto Condensed, ';text-align:end;letter-spacing:0px;word-spacing:0px;text-anchor:end;fill:#ffffff;fill-opacity:1;stroke:none"
         id="path4147"
         inkscape:connector-curvature="0" />
      <path
         d="m 37.836557,987.01378 q -0.389549,-0.0737 -0.723447,-0.0932 -0.333898,-0.0375 -0.760547,-0.0375 -1.335594,0 -2.207439,0.74203 -0.853296,0.74189 -1.317044,2.02192 l 0,14.35757 -3.283335,0 0,-20.07102 3.190586,0 0.05565,2.04056 q 0.612147,-1.11298 1.521093,-1.76224 0.927496,-0.64926 2.20744,-0.64926 0.1484,0 0.333898,0.0376 0.204049,0.0181 0.389549,0.0556 0.185498,0.0376 0.333898,0.0932 0.16695,0.0376 0.241149,0.0737 l 0.01855,3.19053 z"
         style="font-style:normal;font-variant:normal;font-weight:normal;font-stretch:normal;font-size:medium;line-height:125%;font-family:'Roboto Condensed';-inkscape-font-specification:'Roboto Condensed, ';text-align:end;letter-spacing:0px;word-spacing:0px;text-anchor:end;fill:#ffffff;fill-opacity:1;stroke:none"
         id="path4149"
         inkscape:connector-curvature="0" />
      <path
         d="m 50.710197,1004.0056 q -0.166949,-0.371 -0.278249,-0.9461 -0.09274,-0.5936 -0.148398,-1.2429 -0.352448,0.5195 -0.816197,0.9832 -0.445198,0.4637 -1.020245,0.8162 -0.556497,0.3524 -1.224295,0.5565 -0.649246,0.204 -1.391243,0.204 -1.317044,0 -2.392939,-0.3709 -1.057345,-0.371 -1.817892,-1.113 -0.760547,-0.742 -1.168644,-1.8179 -0.408099,-1.09447 -0.408099,-2.5414 0,-1.44693 0.500848,-2.67118 0.500848,-1.22425 1.483994,-2.11469 0.983144,-0.89044 2.467138,-1.39115 1.483994,-0.51949 3.450284,-0.51949 l 2.28164,0 0,-2.13319 q 0,-1.79938 -0.797646,-2.55991 -0.797648,-0.76053 -2.43004,-0.76053 -0.797645,0 -1.428343,0.25967 -0.612147,0.24118 -1.038795,0.66776 -0.426649,0.42672 -0.649247,1.00171 -0.222599,0.55649 -0.222599,1.18726 l -3.283334,0 q 0,-1.07599 0.463747,-2.13333 0.482298,-1.07585 1.354143,-1.91065 0.890397,-0.85316 2.15179,-1.37266 1.261395,-0.51935 2.819588,-0.51935 1.391243,0 2.541337,0.33395 1.168646,0.33381 2.003392,1.07584 0.853295,0.74204 1.317044,1.91065 0.463748,1.16862 0.463748,2.85672 l 0,9.88706 q 0,0.50081 0.0371,1.05731 0.03709,0.5565 0.111298,1.0945 0.09274,0.5379 0.20405,1.0387 0.129852,0.4824 0.278248,0.8905 l 0,0.2968 -3.413184,0 z m -4.377779,-2.6156 q 0.686347,0 1.298494,-0.204 0.612147,-0.2041 1.112994,-0.5194 0.500848,-0.3339 0.871846,-0.742 0.389549,-0.42672 0.612148,-0.8718 l 0,-4.78601 -1.725142,0 q -1.187196,0 -2.15179,0.25981 -0.946047,0.25968 -1.632393,0.76054 -0.667797,0.48221 -1.038795,1.20575 -0.352448,0.72339 -0.352448,1.65083 0,0.90908 0.185498,1.5397 0.1855,0.61208 0.556499,1.00168 0.370998,0.371 0.927495,0.538 0.575047,0.1669 1.335594,0.1669 z"
         style="font-style:normal;font-variant:normal;font-weight:normal;font-stretch:normal;font-size:medium;line-height:125%;font-family:'Roboto Condensed';-inkscape-font-specification:'Roboto Condensed, ';text-align:end;letter-spacing:0px;word-spacing:0px;text-anchor:end;fill:#ffffff;fill-opacity:1;stroke:none"
         id="path4151"
         inkscape:connector-curvature="0" />
      <path
         d="m 61.654645,983.93452 0.09274,2.17032 q 0.908946,-1.20575 2.13324,-1.87351 1.242845,-0.66776 2.745387,-0.66776 1.224295,0 2.225991,0.40808 1.001694,0.38959 1.706592,1.27989 0.704897,0.87194 1.075895,2.26309 0.389547,1.3728 0.389547,3.33908 l 0,13.15189 -3.264784,0 0,-13.18902 q 0,-2.35587 -0.797647,-3.33894 -0.779096,-1.00171 -2.355839,-1.00171 -1.224294,0 -2.20744,0.81616 -0.964594,0.81617 -1.558192,2.13319 l 0,14.58032 -3.283335,0 0,-20.07108 3.097835,0 z"
         style="font-style:normal;font-variant:normal;font-weight:normal;font-stretch:normal;font-size:medium;line-height:125%;font-family:'Roboto Condensed';-inkscape-font-specification:'Roboto Condensed, ';text-align:end;letter-spacing:0px;word-spacing:0px;text-anchor:end;fill:#ffffff;fill-opacity:1;stroke:none"
         id="path4153"
         inkscape:connector-curvature="0" />
      <path
         d="m 76.271981,993.06118 q 0,-2.46714 0.482298,-4.26652 0.482298,-1.79938 1.354144,-2.9495 0.890395,-1.16861 2.13324,-1.7251 1.242844,-0.55649 2.745387,-0.55649 1.502543,0 2.596988,0.61212 1.112995,0.59363 1.892091,1.72511 l 0,-10.38791 3.283336,0 0,28.49271 -3.005087,0 -0.166949,-2.1519 q -0.779096,1.2243 -1.910642,1.8736 -1.131544,0.6492 -2.708287,0.6492 -1.483993,0 -2.726837,-0.575 -1.224295,-0.5936 -2.114691,-1.7622 -0.871845,-1.1686 -1.372693,-2.93087 -0.482298,-1.78088 -0.482298,-4.17374 l 0,-1.87351 z m 3.283334,1.87351 q 0,3.37607 1.001696,4.97127 1.001696,1.57684 3.264786,1.57684 1.372693,0 2.244539,-0.6864 0.871846,-0.6863 1.409793,-1.78074 l 0,-10.12823 q -0.556497,-1.05734 -1.446893,-1.72524 -0.871845,-0.68626 -2.188889,-0.68626 -2.28164,0 -3.283336,1.61383 -1.001696,1.61384 -1.001696,4.97142 l 0,1.87351 z"
         style="font-style:normal;font-variant:normal;font-weight:normal;font-stretch:normal;font-size:medium;line-height:125%;font-family:'Roboto Condensed';-inkscape-font-specification:'Roboto Condensed, ';text-align:end;letter-spacing:0px;word-spacing:0px;text-anchor:end;fill:#ffffff;fill-opacity:1;stroke:none"
         id="path4155"
         inkscape:connector-curvature="0" />
      <path
         d="m 121.88622,995.43554 q -0.1113,2.09605 -0.7049,3.74703 -0.57505,1.65093 -1.65094,2.81963 -1.0759,1.1501 -2.67119,1.7622 -1.57674,0.6121 -3.67288,0.6121 -2.0405,0 -3.67289,-0.7976 -1.63239,-0.7976 -2.78248,-2.2816 -1.1501,-1.48397 -1.7808,-3.58016 -0.61214,-2.09619 -0.61214,-4.71174 l 0,-4.98991 q 0,-2.59691 0.61214,-4.6931 0.6307,-2.11469 1.79935,-3.59862 1.18719,-1.48406 2.89378,-2.28169 1.70659,-0.81619 3.85838,-0.81619 1.9663,0 3.46884,0.5936 1.52109,0.59359 2.57844,1.74375 1.05734,1.14998 1.65094,2.83809 0.5936,1.68797 0.68635,3.87693 l -3.43174,0 q -0.1113,-1.59534 -0.42665,-2.74545 -0.31535,-1.14998 -0.90894,-1.89201 -0.5936,-0.76054 -1.484,-1.11298 -0.89039,-0.37109 -2.13324,-0.37109 -1.48399,0 -2.55988,0.61213 -1.0759,0.59362 -1.7808,1.6881 -0.70489,1.09448 -1.05734,2.65268 -0.3339,1.5582 -0.3339,3.46885 l 0,5.02691 q 0,1.78088 0.27825,3.32044 0.2968,1.5397 0.92749,2.68982 0.64925,1.15014 1.68805,1.81784 1.03879,0.6493 2.52279,0.6493 1.39124,0 2.33729,-0.334 0.96459,-0.3524 1.55819,-1.0758 0.61215,-0.74203 0.92749,-1.87351 0.31535,-1.15011 0.4452,-2.76395 l 3.43174,0 z"
         style="font-style:normal;font-variant:normal;font-weight:normal;font-stretch:normal;font-size:medium;line-height:125%;font-family:'Roboto Condensed';-inkscape-font-specification:'Roboto Condensed, ';text-align:end;letter-spacing:0px;word-spacing:0px;text-anchor:end;fill:#ffffff;fill-opacity:1;stroke:none"
         id="path4157"
         inkscape:connector-curvature="0" />
      <path
         d="m 136.4108,1004.0056 q -0.16695,-0.371 -0.27825,-0.9461 -0.0927,-0.5936 -0.1484,-1.2429 -0.35245,0.5195 -0.8162,0.9832 -0.44519,0.4637 -1.02024,0.8162 -0.5565,0.3524 -1.2243,0.5565 -0.64924,0.204 -1.39124,0.204 -1.31704,0 -2.39294,-0.3709 -1.05734,-0.371 -1.81789,-1.113 -0.76055,-0.742 -1.16865,-1.8179 -0.40809,-1.09447 -0.40809,-2.5414 0,-1.44693 0.50084,-2.67118 0.50085,-1.22425 1.484,-2.11469 0.98314,-0.89044 2.46714,-1.39115 1.48399,-0.51949 3.45028,-0.51949 l 2.28164,0 0,-2.13319 q 0,-1.79938 -0.79765,-2.55991 -0.79764,-0.76053 -2.43004,-0.76053 -0.79764,0 -1.42834,0.25967 -0.61215,0.24118 -1.03879,0.66776 -0.42665,0.42672 -0.64925,1.00171 -0.2226,0.55649 -0.2226,1.18726 l -3.28334,0 q 0,-1.07599 0.46375,-2.13333 0.4823,-1.07585 1.35415,-1.91065 0.89039,-0.85316 2.15179,-1.37266 1.26139,-0.51935 2.81958,-0.51935 1.39125,0 2.54134,0.33395 1.16865,0.33381 2.00339,1.07584 0.85331,0.74204 1.31705,1.91065 0.46375,1.16862 0.46375,2.85672 l 0,9.88706 q 0,0.50081 0.0371,1.05731 0.0371,0.5565 0.11127,1.0945 0.0928,0.5379 0.20406,1.0387 0.12991,0.4824 0.27825,0.8905 l 0,0.2968 -3.41319,0 z m -4.37778,-2.6156 q 0.68634,0 1.29849,-0.204 0.61215,-0.2041 1.113,-0.5194 0.50084,-0.3339 0.87184,-0.742 0.38955,-0.42672 0.61215,-0.8718 l 0,-4.78601 -1.72514,0 q -1.1872,0 -2.15179,0.25981 -0.94605,0.25968 -1.63239,0.76054 -0.6678,0.48221 -1.0388,1.20575 -0.35245,0.72339 -0.35245,1.65083 0,0.90908 0.1855,1.5397 0.1855,0.61208 0.5565,1.00168 0.371,0.371 0.92749,0.538 0.57505,0.1669 1.3356,0.1669 z"
         style="font-style:normal;font-variant:normal;font-weight:normal;font-stretch:normal;font-size:medium;line-height:125%;font-family:'Roboto Condensed';-inkscape-font-specification:'Roboto Condensed, ';text-align:end;letter-spacing:0px;word-spacing:0px;text-anchor:end;fill:#ffffff;fill-opacity:1;stroke:none"
         id="path4159"
         inkscape:connector-curvature="0" />
      <path
         d="m 158.76345,994.93469 q 0,4.76723 -1.72514,7.10461 -1.70659,2.3372 -4.84153,2.3372 -1.57674,0 -2.72683,-0.575 -1.13155,-0.5936 -1.9292,-1.7066 l 0,9.6274 -3.26478,0 0,-27.78778 2.96798,0 0.16696,2.22596 q 0.79764,-1.26139 1.94773,-1.92915 1.16866,-0.66776 2.78249,-0.66776 1.61385,0 2.83814,0.55649 1.24285,0.55649 2.0776,1.7251 0.83473,1.15012 1.26138,2.9495 0.4452,1.79938 0.4452,4.26652 l 0,1.87351 z m -3.26478,-1.87351 q 0,-3.37622 -1.03879,-4.97142 -1.03881,-1.61383 -3.339,-1.61383 -1.27994,0 -2.17034,0.66776 -0.87184,0.64926 -1.40979,1.68811 l 0,10.44354 q 0.53795,1.02016 1.39125,1.66946 0.85329,0.6308 2.22599,0.6308 2.24454,0 3.28333,-1.6325 1.05735,-1.63234 1.05735,-5.00841 l 0,-1.87351 z"
         style="font-style:normal;font-variant:normal;font-weight:normal;font-stretch:normal;font-size:medium;line-height:125%;font-family:'Roboto Condensed';-inkscape-font-specification:'Roboto Condensed, ';text-align:end;letter-spacing:0px;word-spacing:0px;text-anchor:end;fill:#ffffff;fill-opacity:1;stroke:none"
         id="path4161"
         inkscape:connector-curvature="0" />
      <path
         d="m 162.26938,993.04254 q 0,-2.35587 0.59359,-4.11811 0.61216,-1.78074 1.65095,-2.968 1.05734,-1.18711 2.46714,-1.78074 1.40979,-0.61212 3.02364,-0.61212 1.63239,0 3.06073,0.61212 1.42834,0.59363 2.46714,1.78074 1.05735,1.18726 1.65095,2.968 0.61213,1.76224 0.61213,4.11811 l 0,1.89215 q 0,2.33723 -0.61213,4.11811 -0.5936,1.7622 -1.65095,2.9494 -1.0388,1.1872 -2.4486,1.7807 -1.40979,0.5936 -3.04218,0.5936 -1.63239,0 -3.06073,-0.5936 -1.4098,-0.5935 -2.46714,-1.7807 -1.03879,-1.1872 -1.65095,-2.9494 -0.59359,-1.78088 -0.59359,-4.11811 l 0,-1.89215 z m 3.28334,1.89215 q 0,1.66947 0.3339,2.91235 0.35244,1.24275 0.94604,2.07756 0.61214,0.8162 1.42834,1.2429 0.8162,0.4081 1.78079,0.4081 4.47053,0 4.47053,-6.64091 l 0,-1.89215 q 0,-1.65097 -0.35245,-2.89372 -0.33389,-1.24289 -0.94604,-2.0777 -0.5936,-0.83466 -1.42834,-1.26138 -0.81621,-0.42658 -1.78079,-0.42658 -0.94605,0 -1.76224,0.42658 -0.8162,0.42672 -1.4098,1.26138 -0.5936,0.83481 -0.94604,2.0777 -0.3339,1.24275 -0.3339,2.89372 l 0,1.89215 z"
         style="font-style:normal;font-variant:normal;font-weight:normal;font-stretch:normal;font-size:medium;line-height:125%;font-family:'Roboto Condensed';-inkscape-font-specification:'Roboto Condensed, ';text-align:end;letter-spacing:0px;word-spacing:0px;text-anchor:end;fill:#ffffff;fill-opacity:1;stroke:none"
         id="path4163"
         inkscape:connector-curvature="0" />
      <path
         d="m 190.31686,987.01378 q -0.38956,-0.0737 -0.72345,-0.0932 -0.33389,-0.0375 -0.76055,-0.0375 -1.33559,0 -2.20743,0.74203 -0.8533,0.74189 -1.31705,2.02192 l 0,14.35757 -3.28333,0 0,-20.07102 3.19059,0 0.0556,2.04056 q 0.61214,-1.11298 1.52109,-1.76224 0.9275,-0.64926 2.20744,-0.64926 0.1484,0 0.33391,0.0376 0.20404,0.0181 0.38954,0.0556 0.1855,0.0376 0.33389,0.0932 0.16695,0.0376 0.24115,0.0737 l 0.0185,3.19053 z"
         style="font-style:normal;font-variant:normal;font-weight:normal;font-stretch:normal;font-size:medium;line-height:125%;font-family:'Roboto Condensed';-inkscape-font-specification:'Roboto Condensed, ';text-align:end;letter-spacing:0px;word-spacing:0px;text-anchor:end;fill:#ffffff;fill-opacity:1;stroke:none"
         id="path4165"
         inkscape:connector-curvature="0" />
      <path
         d="m 203.19049,1004.0056 q -0.16695,-0.371 -0.27825,-0.9461 -0.0928,-0.5936 -0.14839,-1.2429 -0.35245,0.5195 -0.81621,0.9832 -0.44519,0.4637 -1.02024,0.8162 -0.5565,0.3524 -1.22429,0.5565 -0.64924,0.204 -1.39125,0.204 -1.31704,0 -2.39293,-0.3709 -1.05735,-0.371 -1.8179,-1.113 -0.76054,-0.742 -1.16864,-1.8179 -0.4081,-1.09447 -0.4081,-2.5414 0,-1.44693 0.50085,-2.67118 0.50085,-1.22425 1.48399,-2.11469 0.98314,-0.89044 2.46714,-1.39115 1.484,-0.51949 3.45028,-0.51949 l 2.28164,0 0,-2.13319 q 0,-1.79938 -0.79764,-2.55991 -0.79764,-0.76053 -2.43005,-0.76053 -0.79764,0 -1.42833,0.25967 -0.61215,0.24118 -1.03881,0.66776 -0.42663,0.42672 -0.64924,1.00171 -0.2226,0.55649 -0.2226,1.18726 l -3.28333,0 q 0,-1.07599 0.46374,-2.13333 0.48231,-1.07585 1.35415,-1.91065 0.8904,-0.85316 2.15178,-1.37266 1.2614,-0.51935 2.8196,-0.51935 1.39124,0 2.54133,0.33395 1.16864,0.33381 2.00339,1.07584 0.85331,0.74204 1.31705,1.91065 0.46375,1.16862 0.46375,2.85672 l 0,9.88706 q 0,0.50081 0.0371,1.05731 0.0371,0.5565 0.11127,1.0945 0.0928,0.5379 0.20405,1.0387 0.12991,0.4824 0.27825,0.8905 l 0,0.2968 -3.41319,0 z m -4.37777,-2.6156 q 0.68634,0 1.29849,-0.204 0.61214,-0.2041 1.11299,-0.5194 0.50085,-0.3339 0.87185,-0.742 0.38954,-0.42672 0.61214,-0.8718 l 0,-4.78601 -1.72514,0 q -1.18719,0 -2.15179,0.25981 -0.94605,0.25968 -1.63239,0.76054 -0.66779,0.48221 -1.03879,1.20575 -0.35245,0.72339 -0.35245,1.65083 0,0.90908 0.1855,1.5397 0.1855,0.61208 0.55649,1.00168 0.371,0.371 0.92749,0.538 0.57506,0.1669 1.33561,0.1669 z"
         style="font-style:normal;font-variant:normal;font-weight:normal;font-stretch:normal;font-size:medium;line-height:125%;font-family:'Roboto Condensed';-inkscape-font-specification:'Roboto Condensed, ';text-align:end;letter-spacing:0px;word-spacing:0px;text-anchor:end;fill:#ffffff;fill-opacity:1;stroke:none"
         id="path4167"
         inkscape:connector-curvature="0" />
      <path
         d="m 214.58015,1004.0056 -3.28334,0 0,-28.49271 3.28334,0 0,28.49271 z"
         style="font-style:normal;font-variant:normal;font-weight:normal;font-stretch:normal;font-size:medium;line-height:125%;font-family:'Roboto Condensed';-inkscape-font-specification:'Roboto Condensed, ';text-align:end;letter-spacing:0px;word-spacing:0px;text-anchor:end;fill:#ffffff;fill-opacity:1;stroke:none"
         id="path4169"
         inkscape:connector-curvature="0" />
      <path
         d="m 246.54163,1004.0056 -3.41317,0 0,-12.48413 -10.87026,0 0,12.48413 -3.39464,0 0,-27.00871 3.39464,0 0,11.61223 10.87026,0 0,-11.61223 3.41317,0 0,27.00871 z"
         style="font-style:normal;font-variant:normal;font-weight:normal;font-stretch:normal;font-size:medium;line-height:125%;font-family:'Roboto Condensed';-inkscape-font-specification:'Roboto Condensed, ';text-align:end;letter-spacing:0px;word-spacing:0px;text-anchor:end;fill:#ffffff;fill-opacity:1;stroke:none"
         id="path4171"
         inkscape:connector-curvature="0" />
      <path
         d="m 251.23478,993.04254 q 0,-2.35587 0.5936,-4.11811 0.61214,-1.78074 1.65095,-2.968 1.05734,-1.18711 2.46713,-1.78074 1.4098,-0.61212 3.02363,-0.61212 1.6324,0 3.06074,0.61212 1.42835,0.59363 2.46714,1.78074 1.05734,1.18726 1.65094,2.968 0.61215,1.76224 0.61215,4.11811 l 0,1.89215 q 0,2.33723 -0.61215,4.11811 -0.5936,1.7622 -1.65094,2.9494 -1.03879,1.1872 -2.44859,1.7807 -1.40979,0.5936 -3.04218,0.5936 -1.63239,0 -3.06074,-0.5936 -1.40979,-0.5935 -2.46713,-1.7807 -1.03881,-1.1872 -1.65095,-2.9494 -0.5936,-1.78088 -0.5936,-4.11811 l 0,-1.89215 z m 3.28334,1.89215 q 0,1.66947 0.33389,2.91235 0.35245,1.24275 0.94605,2.07756 0.61215,0.8162 1.42834,1.2429 0.8162,0.4081 1.7808,0.4081 4.47053,0 4.47053,-6.64091 l 0,-1.89215 q 0,-1.65097 -0.35245,-2.89372 -0.33391,-1.24289 -0.94605,-2.0777 -0.59359,-0.83466 -1.42834,-1.26138 -0.8162,-0.42658 -1.7808,-0.42658 -0.94603,0 -1.76224,0.42658 -0.81619,0.42672 -1.40979,1.26138 -0.5936,0.83481 -0.94605,2.0777 -0.33389,1.24275 -0.33389,2.89372 l 0,1.89215 z"
         style="font-style:normal;font-variant:normal;font-weight:normal;font-stretch:normal;font-size:medium;line-height:125%;font-family:'Roboto Condensed';-inkscape-font-specification:'Roboto Condensed, ';text-align:end;letter-spacing:0px;word-spacing:0px;text-anchor:end;fill:#ffffff;fill-opacity:1;stroke:none"
         id="path4173"
         inkscape:connector-curvature="0" />
      <path
         d="m 275.29401,979.07451 0,4.86001 3.02363,0 0,2.65268 -3.02363,0 0,12.44696 q 0,0.77917 0.14839,1.26134 0.14841,0.4638 0.38956,0.7236 0.24114,0.2597 0.53794,0.3524 0.31535,0.074 0.64924,0.074 0.33391,0 0.74201,-0.074 0.4081,-0.093 0.57504,-0.1484 l -0.0371,2.7825 q -0.33391,0.1112 -0.8904,0.2411 -0.53795,0.1294 -1.39125,0.1294 -0.79764,0 -1.52109,-0.2782 -0.72344,-0.2597 -1.27995,-0.8904 -0.53794,-0.6306 -0.87184,-1.651 -0.31535,-1.0387 -0.31535,-2.54126 l 0,-12.42846 -3.06074,0 0,-2.65268 3.06074,0 0,-4.86 3.26479,0 z"
         style="font-style:normal;font-variant:normal;font-weight:normal;font-stretch:normal;font-size:medium;line-height:125%;font-family:'Roboto Condensed';-inkscape-font-specification:'Roboto Condensed, ';text-align:end;letter-spacing:0px;word-spacing:0px;text-anchor:end;fill:#ffffff;fill-opacity:1;stroke:none"
         id="path4175"
         inkscape:connector-curvature="0" />
      <path
         d="m 289.44761,1004.3765 q -1.79935,0 -3.24624,-0.5378 -1.44689,-0.538 -2.46714,-1.6325 -1.0017,-1.113 -1.53964,-2.80096 -0.53795,-1.6881 -0.53795,-3.98834 l 0,-2.26309 q 0,-2.65254 0.6307,-4.47042 0.6307,-1.83652 1.65095,-2.96799 1.03879,-1.15012 2.37438,-1.65098 1.33559,-0.50085 2.76393,-0.50085 1.8921,0 3.22769,0.63062 1.3356,0.61227 2.18889,1.81802 0.8533,1.20561 1.24285,2.96785 0.38954,1.76224 0.38954,4.06248 l 0,1.91065 -11.20414,0 0,0.46371 q 0,3.22767 1.20574,4.6932 1.2243,1.4655 3.50594,1.4655 0.83475,0 1.50254,-0.1671 0.6678,-0.1669 1.22429,-0.4637 0.5565,-0.3153 1.02025,-0.7234 0.46374,-0.42671 0.87184,-0.92756 l 1.70659,2.07766 q -0.40809,0.575 -0.98314,1.113 -0.57504,0.5379 -1.3727,0.9646 -0.79764,0.4081 -1.83644,0.6677 -1.02024,0.2597 -2.31873,0.2597 z m -0.37101,-17.99334 q -0.85328,0 -1.57674,0.25967 -0.72345,0.25968 -1.27994,0.92744 -0.53795,0.64926 -0.87184,1.76224 -0.33391,1.11312 -0.4081,2.80109 l 7.90226,0 0,-0.44522 q -0.0556,-1.16862 -0.25969,-2.13319 -0.1855,-0.98321 -0.61216,-1.68811 -0.40809,-0.70489 -1.11299,-1.09434 -0.7049,-0.38958 -1.7808,-0.38958 z"
         style="font-style:normal;font-variant:normal;font-weight:normal;font-stretch:normal;font-size:medium;line-height:125%;font-family:'Roboto Condensed';-inkscape-font-specification:'Roboto Condensed, ';text-align:end;letter-spacing:0px;word-spacing:0px;text-anchor:end;fill:#ffffff;fill-opacity:1;stroke:none"
         id="path4177"
         inkscape:connector-curvature="0" />
      <path
         d="m 303.61973,1004.0056 -3.28333,0 0,-28.49271 3.28333,0 0,28.49271 z"
         style="font-style:normal;font-variant:normal;font-weight:normal;font-stretch:normal;font-size:medium;line-height:125%;font-family:'Roboto Condensed';-inkscape-font-specification:'Roboto Condensed, ';text-align:end;letter-spacing:0px;word-spacing:0px;text-anchor:end;fill:#ffffff;fill-opacity:1;stroke:none"
         id="path4179"
         inkscape:connector-curvature="0" />
    </g>
    <g
       id="g4287"
       transform="translate(20,0)"
       style="fill:#ffffff">
      <path
         d="m 7.7430733,1033.6151 -2.0797406,2.5161 0,7.2427 -2.6614863,0 0,-21.1755 2.6614863,0 0,10.2242 1.7452368,-2.3125 5.7011075,-7.9117 3.1996,0 -6.8791415,9.3225 7.4172565,11.853 -3.185057,0 -5.9192617,-9.7588 z"
         style="font-style:normal;font-variant:normal;font-weight:normal;font-stretch:normal;font-size:21.41481209px;line-height:125%;font-family:'Roboto Condensed';-inkscape-font-specification:'Roboto Condensed, ';text-align:end;letter-spacing:0px;word-spacing:0px;text-anchor:end;fill:#ffffff;fill-opacity:1;stroke:none"
         id="path4181"
         inkscape:connector-curvature="0" />
      <path
         d="m 20.948699,1027.6377 0.05818,1.4544 q 0.683551,-0.8289 1.614344,-1.2799 0.945336,-0.4653 2.181547,-0.4653 1.192578,0 2.152457,0.5381 0.974425,0.5381 1.527083,1.7453 0.669008,-1.0326 1.687062,-1.6581 1.032599,-0.6253 2.443332,-0.6253 1.061686,0 1.890674,0.3345 0.828986,0.3199 1.396189,1.0181 0.567203,0.6981 0.858075,1.7742 0.305416,1.0762 0.305416,2.5598 l 0,10.3404 -2.55968,0 0,-10.355 q 0,-0.989 -0.189068,-1.6435 -0.189067,-0.6544 -0.538115,-1.0471 -0.349047,-0.3926 -0.843531,-0.5381 -0.494483,-0.1599 -1.105316,-0.1599 -0.610833,0 -1.090773,0.2471 -0.47994,0.2473 -0.828988,0.6836 -0.334503,0.4364 -0.552658,1.018 -0.203611,0.5818 -0.261786,1.2508 l 0,0.072 0,10.4713 -2.588769,0 0,-10.3405 q 0,-0.9163 -0.189066,-1.5562 -0.174524,-0.6544 -0.523572,-1.0617 -0.349046,-0.4072 -0.843531,-0.5962 -0.494483,-0.1891 -1.105316,-0.1891 -1.07623,0 -1.730694,0.5382 -0.654463,0.5235 -1.018054,1.4106 l 0,11.7949 -2.559681,0 0,-15.7362 2.414244,0 z"
         style="font-style:normal;font-variant:normal;font-weight:normal;font-stretch:normal;font-size:21.41481209px;line-height:125%;font-family:'Roboto Condensed';-inkscape-font-specification:'Roboto Condensed, ';text-align:end;letter-spacing:0px;word-spacing:0px;text-anchor:end;fill:#ffffff;fill-opacity:1;stroke:none"
         id="path4183"
         inkscape:connector-curvature="0" />
      <path
         d="m 55.22806,1043.3739 -2.588767,0 0,-17.9323 -4.450354,1.9925 0,-2.4432 6.6319,-2.8943 0.407221,0 0,21.2773 z"
         style="font-style:normal;font-variant:normal;font-weight:normal;font-stretch:normal;font-size:21.41481209px;line-height:125%;font-family:'Roboto Condensed';-inkscape-font-specification:'Roboto Condensed, ';text-align:end;letter-spacing:0px;word-spacing:0px;text-anchor:end;fill:#ffffff;fill-opacity:1;stroke:none"
         id="path4185"
         inkscape:connector-curvature="0" />
      <path
         d="m 73.902092,1023.711 -7.286364,19.6629 -2.690575,0 7.271821,-18.9649 -9.438823,0 0,-2.2106 12.143941,0 0,1.5126 z"
         style="font-style:normal;font-variant:normal;font-weight:normal;font-stretch:normal;font-size:21.41481209px;line-height:125%;font-family:'Roboto Condensed';-inkscape-font-specification:'Roboto Condensed, ';text-align:end;letter-spacing:0px;word-spacing:0px;text-anchor:end;fill:#ffffff;fill-opacity:1;stroke:none"
         id="path4187"
         inkscape:connector-curvature="0" />
      <path
         d="m 80.228575,1031.4772 1.672519,0 q 0.828988,0 1.439819,-0.2762 0.625378,-0.2764 1.018056,-0.7564 0.407222,-0.4944 0.610833,-1.1488 0.20361,-0.6691 0.20361,-1.4545 0,-1.8179 -0.727181,-2.7632 -0.712638,-0.9599 -2.152459,-0.9599 -0.683551,0 -1.236209,0.2618 -0.538115,0.2473 -0.91625,0.7271 -0.378135,0.4654 -0.596289,1.149 -0.203612,0.669 -0.203612,1.498 l -2.55968,0 q 0,-1.2217 0.378135,-2.2834 0.392678,-1.0617 1.105316,-1.8469 0.727183,-0.7999 1.745237,-1.2509 1.018055,-0.4653 2.283352,-0.4653 1.221666,0 2.210634,0.3926 1.003511,0.3782 1.716149,1.1344 0.727181,0.7418 1.119861,1.8615 0.392678,1.12 0.392678,2.6035 0,0.5963 -0.15998,1.2507 -0.145437,0.6544 -0.479941,1.2799 -0.334503,0.6253 -0.858075,1.1779 -0.509028,0.5381 -1.250753,0.9017 0.901705,0.3345 1.483451,0.8872 0.581747,0.5382 0.91625,1.2072 0.334503,0.669 0.465396,1.4107 0.130895,0.7417 0.130895,1.4543 0,1.4836 -0.436308,2.647 -0.43631,1.1489 -1.207123,1.9343 -0.756269,0.7853 -1.803411,1.2072 -1.032599,0.4071 -2.254263,0.4071 -1.192579,0 -2.225177,-0.3781 -1.018056,-0.3926 -1.774326,-1.1344 -0.756269,-0.7563 -1.192578,-1.8471 -0.421766,-1.1053 -0.421766,-2.5161 l 2.574225,0 q 0,0.8291 0.203612,1.5126 0.20361,0.669 0.596288,1.1635 0.392678,0.48 0.945336,0.7417 0.567203,0.2618 1.294386,0.2618 1.439819,0 2.28335,-0.9744 0.858075,-0.9743 0.858075,-2.9669 0,-1.978 -0.945336,-2.9088 -0.945337,-0.9452 -2.574224,-0.9452 l -1.672519,0 0,-2.1962 z"
         style="font-style:normal;font-variant:normal;font-weight:normal;font-stretch:normal;font-size:21.41481209px;line-height:125%;font-family:'Roboto Condensed';-inkscape-font-specification:'Roboto Condensed, ';text-align:end;letter-spacing:0px;word-spacing:0px;text-anchor:end;fill:#ffffff;fill-opacity:1;stroke:none"
         id="path4189"
         inkscape:connector-curvature="0" />
      <path
         d="m 105.44725,1034.8078 -3.72317,0 0,8.5661 -2.676028,0 0,-21.1755 5.933808,0 q 3.11234,0 4.71214,1.6288 1.5998,1.6144 1.5998,4.7413 0,1.9635 -0.87262,3.4324 -0.85808,1.4543 -2.44333,2.196 l 4.1013,9.0025 0,0.1745 -2.86509,0 -3.76681,-8.5661 z m -3.72317,-2.2834 3.22869,0 q 0.91625,0 1.5998,-0.3054 0.68355,-0.3199 1.1344,-0.8436 0.4654,-0.538 0.6981,-1.2507 0.2327,-0.7271 0.2327,-1.5562 0,-0.9162 -0.20361,-1.658 -0.20362,-0.7562 -0.63993,-1.2943 -0.4363,-0.5381 -1.1344,-0.829 -0.68355,-0.2909 -1.65797,-0.2909 l -3.25778,0 0,8.0281 z"
         style="font-style:normal;font-variant:normal;font-weight:normal;font-stretch:normal;font-size:21.41481209px;line-height:125%;font-family:'Roboto Condensed';-inkscape-font-specification:'Roboto Condensed, ';text-align:end;letter-spacing:0px;word-spacing:0px;text-anchor:end;fill:#ffffff;fill-opacity:1;stroke:none"
         id="path4191"
         inkscape:connector-curvature="0" />
      <path
         d="m 122.53603,1041.9924 q -0.61083,0.7999 -1.54163,1.2362 -0.91625,0.4362 -2.19609,0.4362 -0.97442,0 -1.77432,-0.3199 -0.7999,-0.3345 -1.3671,-1.0326 -0.56721,-0.7127 -0.88717,-1.818 -0.30541,-1.1198 -0.30541,-2.6905 l 0,-10.1661 2.55968,0 0,10.1951 q 0,1.0617 0.18907,1.7598 0.20361,0.6836 0.50902,1.0908 0.31996,0.3927 0.71264,0.5526 0.40722,0.1455 0.7999,0.1455 1.27984,0 2.05066,-0.5672 0.77081,-0.5672 1.17803,-1.527 l 0,-11.6496 2.57422,0 0,15.7362 -2.44333,0 -0.0582,-1.3815 z"
         style="font-style:normal;font-variant:normal;font-weight:normal;font-stretch:normal;font-size:21.41481209px;line-height:125%;font-family:'Roboto Condensed';-inkscape-font-specification:'Roboto Condensed, ';text-align:end;letter-spacing:0px;word-spacing:0px;text-anchor:end;fill:#ffffff;fill-opacity:1;stroke:none"
         id="path4193"
         inkscape:connector-curvature="0" />
      <path
         d="m 132.30935,1023.8272 0,3.8105 2.37061,0 0,2.0798 -2.37061,0 0,9.7588 q 0,0.6109 0.11635,0.9889 0.11634,0.3636 0.30541,0.5672 0.18907,0.2036 0.42177,0.2764 0.24724,0.058 0.50903,0.058 0.26178,0 0.58174,-0.058 0.31996,-0.072 0.45086,-0.1169 l -0.0291,2.1816 q -0.26178,0.088 -0.69809,0.1892 -0.42177,0.1015 -1.09078,0.1015 -0.62537,0 -1.19258,-0.2181 -0.5672,-0.2036 -1.00351,-0.6981 -0.42176,-0.4944 -0.68355,-1.2943 -0.24724,-0.8145 -0.24724,-1.9926 l 0,-9.7442 -2.3997,0 0,-2.0798 2.3997,0 0,-3.8104 2.55968,0 z"
         style="font-style:normal;font-variant:normal;font-weight:normal;font-stretch:normal;font-size:21.41481209px;line-height:125%;font-family:'Roboto Condensed';-inkscape-font-specification:'Roboto Condensed, ';text-align:end;letter-spacing:0px;word-spacing:0px;text-anchor:end;fill:#ffffff;fill-opacity:1;stroke:none"
         id="path4195"
         inkscape:connector-curvature="0" />
      <path
         d="m 145.87857,1043.3739 q -0.13088,-0.2908 -0.21815,-0.7417 -0.0727,-0.4654 -0.11641,-0.9743 -0.27634,0.4071 -0.63993,0.7707 -0.34904,0.3637 -0.7999,0.6399 -0.43631,0.2764 -0.95988,0.4363 -0.50902,0.16 -1.09077,0.16 -1.0326,0 -1.87613,-0.2909 -0.82899,-0.2908 -1.42528,-0.8726 -0.59629,-0.5817 -0.91625,-1.4252 -0.31996,-0.8581 -0.31996,-1.9925 0,-1.1344 0.39268,-2.0943 0.39267,-0.9599 1.1635,-1.658 0.77081,-0.6981 1.93429,-1.0907 1.1635,-0.4072 2.70512,-0.4072 l 1.78887,0 0,-1.6726 q 0,-1.4107 -0.62538,-2.007 -0.62538,-0.5963 -1.90522,-0.5963 -0.62537,0 -1.11985,0.2036 -0.47995,0.1891 -0.81444,0.5236 -0.33451,0.3345 -0.50904,0.7854 -0.17452,0.4363 -0.17452,0.9308 l -2.57422,0 q 0,-0.8436 0.36358,-1.6726 0.37814,-0.8435 1.06169,-1.4979 0.69809,-0.669 1.68706,-1.0763 0.98897,-0.4072 2.21064,-0.4072 1.09078,0 1.99248,0.2617 0.91624,0.2618 1.57071,0.8436 0.66901,0.5818 1.0326,1.498 0.36359,0.9163 0.36359,2.2397 l 0,7.7518 q 0,0.3926 0.0291,0.8289 0.0291,0.4363 0.0872,0.8581 0.0727,0.4218 0.16,0.8145 0.10181,0.3781 0.21814,0.698 l 0,0.2327 -2.67603,0 z m -3.4323,-2.0505 q 0.53812,0 1.01805,-0.1601 0.47995,-0.16 0.87263,-0.4071 0.39268,-0.2619 0.68354,-0.5818 0.30543,-0.3345 0.47995,-0.6837 l 0,-3.7521 -1.35255,0 q -0.93081,0 -1.68707,0.2036 -0.74173,0.2036 -1.27984,0.5963 -0.52357,0.3781 -0.81445,0.9453 -0.27632,0.5672 -0.27632,1.2944 0,0.7125 0.14543,1.2071 0.14544,0.4799 0.43632,0.7853 0.29086,0.2909 0.72718,0.4217 0.45085,0.1308 1.04713,0.1308 z"
         style="font-style:normal;font-variant:normal;font-weight:normal;font-stretch:normal;font-size:21.41481209px;line-height:125%;font-family:'Roboto Condensed';-inkscape-font-specification:'Roboto Condensed, ';text-align:end;letter-spacing:0px;word-spacing:0px;text-anchor:end;fill:#ffffff;fill-opacity:1;stroke:none"
         id="path4197"
         inkscape:connector-curvature="0" />
      <path
         d="m 166.93776,1043.3739 q -0.13088,-0.2908 -0.21815,-0.7417 -0.0727,-0.4654 -0.11641,-0.9743 -0.27633,0.4071 -0.63992,0.7707 -0.34904,0.3637 -0.79989,0.6399 -0.43632,0.2764 -0.95989,0.4363 -0.50903,0.16 -1.09077,0.16 -1.0326,0 -1.87614,-0.2909 -0.82897,-0.2908 -1.42527,-0.8726 -0.59628,-0.5817 -0.91624,-1.4252 -0.31997,-0.8581 -0.31997,-1.9925 0,-1.1344 0.39268,-2.0943 0.39268,-0.9599 1.16349,-1.658 0.77082,-0.6981 1.9343,-1.0907 1.1635,-0.4072 2.70512,-0.4072 l 1.78886,0 0,-1.6726 q 0,-1.4107 -0.62536,-2.007 -0.62538,-0.5963 -1.90523,-0.5963 -0.62536,0 -1.11985,0.2036 -0.47995,0.1891 -0.81445,0.5236 -0.3345,0.3345 -0.50902,0.7854 -0.17453,0.4363 -0.17453,0.9308 l -2.57422,0 q 0,-0.8436 0.36359,-1.6726 0.37814,-0.8435 1.06168,-1.4979 0.6981,-0.669 1.68707,-1.0763 0.98897,-0.4072 2.21063,-0.4072 1.09077,0 1.99247,0.2617 0.91626,0.2618 1.57072,0.8436 0.66901,0.5818 1.0326,1.498 0.36359,0.9163 0.36359,2.2397 l 0,7.7518 q 0,0.3926 0.0291,0.8289 0.0291,0.4363 0.0872,0.8581 0.0727,0.4218 0.15998,0.8145 0.10181,0.3781 0.21816,0.698 l 0,0.2327 -2.67604,0 z m -3.4323,-2.0505 q 0.53812,0 1.01805,-0.1601 0.47994,-0.16 0.87263,-0.4071 0.39267,-0.2619 0.68354,-0.5818 0.30543,-0.3345 0.47994,-0.6837 l 0,-3.7521 -1.35256,0 q -0.93079,0 -1.68705,0.2036 -0.74173,0.2036 -1.27984,0.5963 -0.52357,0.3781 -0.81445,0.9453 -0.27632,0.5672 -0.27632,1.2944 0,0.7125 0.14543,1.2071 0.14543,0.4799 0.4363,0.7853 0.29088,0.2909 0.7272,0.4217 0.45085,0.1308 1.04713,0.1308 z"
         style="font-style:normal;font-variant:normal;font-weight:normal;font-stretch:normal;font-size:21.41481209px;line-height:125%;font-family:'Roboto Condensed';-inkscape-font-specification:'Roboto Condensed, ';text-align:end;letter-spacing:0px;word-spacing:0px;text-anchor:end;fill:#ffffff;fill-opacity:1;stroke:none"
         id="path4199"
         inkscape:connector-curvature="0" />
      <path
         d="m 190.4112,1033.5861 -7.48997,0 0,7.5046 8.72619,0 0,2.2832 -11.38767,0 0,-21.1755 11.24222,0 0,2.2979 -8.58074,0 0,6.8065 7.48997,0 0,2.2833 z"
         style="font-style:normal;font-variant:normal;font-weight:normal;font-stretch:normal;font-size:21.41481209px;line-height:125%;font-family:'Roboto Condensed';-inkscape-font-specification:'Roboto Condensed, ';text-align:end;letter-spacing:0px;word-spacing:0px;text-anchor:end;fill:#ffffff;fill-opacity:1;stroke:none"
         id="path4201"
         inkscape:connector-curvature="0" />
      <path
         d="m 202.32244,1039.3454 q 0,-0.4363 -0.15998,-0.7854 -0.15998,-0.3636 -0.52357,-0.6835 -0.36359,-0.3345 -0.94533,-0.6546 -0.5672,-0.3199 -1.41073,-0.698 -1.09078,-0.4508 -1.96339,-0.8871 -0.85809,-0.4364 -1.45437,-0.9599 -0.58175,-0.5381 -0.90171,-1.2217 -0.30542,-0.6981 -0.30542,-1.6435 0,-0.9308 0.34906,-1.7451 0.36359,-0.8145 1.01805,-1.4108 0.65446,-0.6109 1.57072,-0.9598 0.91624,-0.3491 2.05065,-0.3491 1.19258,0 2.13792,0.3635 0.94534,0.3636 1.5998,1.0182 0.65446,0.6399 1.0035,1.5124 0.34906,0.8726 0.34906,1.8761 l -2.55969,0 q 0,-0.4798 -0.17453,-0.9307 -0.15998,-0.4654 -0.49448,-0.829 -0.31996,-0.3636 -0.78536,-0.5818 -0.46539,-0.2181 -1.07622,-0.2181 -0.65446,0 -1.11986,0.189 -0.45086,0.1746 -0.74173,0.48 -0.29088,0.2909 -0.43631,0.6835 -0.13088,0.3928 -0.13088,0.8145 0,0.4363 0.11628,0.7562 0.13088,0.3055 0.43632,0.5818 0.30541,0.2764 0.82898,0.5526 0.53811,0.2764 1.3671,0.64 1.19258,0.4654 2.10882,0.9453 0.93081,0.4654 1.55619,1.0326 0.62536,0.5526 0.94532,1.2653 0.31997,0.7127 0.31997,1.6579 0,1.0328 -0.37814,1.8762 -0.36359,0.829 -1.04715,1.4254 -0.68354,0.5816 -1.64342,0.9017 -0.95988,0.3053 -2.12338,0.3053 -1.33801,0 -2.37061,-0.4071 -1.0326,-0.4219 -1.7307,-1.1054 -0.69809,-0.6981 -1.06168,-1.5998 -0.34904,-0.9017 -0.34904,-1.8761 l 2.58877,0 q 0.0291,0.829 0.30541,1.3671 0.27632,0.5381 0.68356,0.858 0.42175,0.3201 0.93079,0.4509 0.50902,0.1169 1.0035,0.1169 1.27985,0 1.94886,-0.5672 0.669,-0.5817 0.669,-1.5561 z"
         style="font-style:normal;font-variant:normal;font-weight:normal;font-stretch:normal;font-size:21.41481209px;line-height:125%;font-family:'Roboto Condensed';-inkscape-font-specification:'Roboto Condensed, ';text-align:end;letter-spacing:0px;word-spacing:0px;text-anchor:end;fill:#ffffff;fill-opacity:1;stroke:none"
         id="path4203"
         inkscape:connector-curvature="0" />
      <path
         d="m 207.74721,1034.7932 q 0,-1.9343 0.3636,-3.3451 0.36359,-1.4106 1.04714,-2.3123 0.68355,-0.9163 1.67252,-1.3526 0.98896,-0.4363 2.23972,-0.4363 1.17804,0 2.05064,0.4799 0.88718,0.4654 1.49801,1.3525 l 0.11641,-1.5416 2.35608,0 0,21.7864 -2.57424,0 0,-7.4317 q -0.61083,0.8143 -1.4689,1.2507 -0.85807,0.4217 -1.99247,0.4217 -1.25076,0 -2.23972,-0.4508 -0.97443,-0.4654 -1.65798,-1.3817 -0.68355,-0.9162 -1.04714,-2.2979 -0.3636,-1.3961 -0.3636,-3.2723 l 0,-1.4689 z m 2.57424,1.4689 q 0,2.647 0.81444,3.9269 0.81444,1.2797 2.58877,1.2797 1.0035,0 1.67251,-0.4654 0.669,-0.4798 1.11986,-1.2653 l 0,-8.4352 q -0.46539,-0.7708 -1.14895,-1.2508 -0.669,-0.4945 -1.62889,-0.4945 -1.78886,0 -2.6033,1.309 -0.81444,1.2943 -0.81444,3.9267 l 0,1.4689 z"
         style="font-style:normal;font-variant:normal;font-weight:normal;font-stretch:normal;font-size:21.41481209px;line-height:125%;font-family:'Roboto Condensed';-inkscape-font-specification:'Roboto Condensed, ';text-align:end;letter-spacing:0px;word-spacing:0px;text-anchor:end;fill:#ffffff;fill-opacity:1;stroke:none"
         id="path4205"
         inkscape:connector-curvature="0" />
      <path
         d="m 231.26429,1041.9924 q -0.61083,0.7999 -1.54162,1.2362 -0.91626,0.4362 -2.1961,0.4362 -0.97442,0 -1.77431,-0.3199 -0.79991,-0.3345 -1.36711,-1.0326 -0.5672,-0.7127 -0.88716,-1.818 -0.30542,-1.1198 -0.30542,-2.6905 l 0,-10.1661 2.55969,0 0,10.1951 q 0,1.0617 0.18906,1.7598 0.20361,0.6836 0.50903,1.0908 0.31996,0.3927 0.71263,0.5526 0.40722,0.1455 0.79991,0.1455 1.27983,0 2.05065,-0.5672 0.77081,-0.5672 1.17803,-1.527 l 0,-11.6496 2.57423,0 0,15.7362 -2.44333,0 -0.0581,-1.3815 z"
         style="font-style:normal;font-variant:normal;font-weight:normal;font-stretch:normal;font-size:21.41481209px;line-height:125%;font-family:'Roboto Condensed';-inkscape-font-specification:'Roboto Condensed, ';text-align:end;letter-spacing:0px;word-spacing:0px;text-anchor:end;fill:#ffffff;fill-opacity:1;stroke:none"
         id="path4207"
         inkscape:connector-curvature="0" />
      <path
         d="m 240.44132,1043.3739 -2.57422,0 0,-15.7362 2.57422,0 0,15.7362 z m -2.71965,-19.9102 q 0,-0.6544 0.36359,-1.1054 0.36359,-0.4507 1.09077,-0.4507 0.72719,0 1.09078,0.4653 0.37813,0.451 0.37813,1.0908 0,0.6545 -0.36359,1.0908 -0.36359,0.4364 -1.10532,0.4364 -0.72718,0 -1.09077,-0.4364 -0.36359,-0.4363 -0.36359,-1.0908 z"
         style="font-style:normal;font-variant:normal;font-weight:normal;font-stretch:normal;font-size:21.41481209px;line-height:125%;font-family:'Roboto Condensed';-inkscape-font-specification:'Roboto Condensed, ';text-align:end;letter-spacing:0px;word-spacing:0px;text-anchor:end;fill:#ffffff;fill-opacity:1;stroke:none"
         id="path4209"
         inkscape:connector-curvature="0" />
      <path
         d="m 255.84304,1036.2621 q 0,3.7377 -1.35256,5.5702 -1.33801,1.8325 -3.79589,1.8325 -1.23621,0 -2.13791,-0.4508 -0.88716,-0.4654 -1.51254,-1.338 l 0,7.5481 -2.55969,0 0,-21.7864 2.327,0 0.13088,1.7453 q 0.62538,-0.989 1.52708,-1.5126 0.91626,-0.5235 2.18155,-0.5235 1.2653,0 2.22518,0.4363 0.97442,0.4363 1.62889,1.3526 0.65446,0.9017 0.98897,2.3123 0.34904,1.4108 0.34904,3.3451 l 0,1.4689 z m -2.55968,-1.4689 q 0,-2.647 -0.81444,-3.8977 -0.81444,-1.2652 -2.61785,-1.2652 -1.00352,0 -1.70161,0.5235 -0.68355,0.509 -1.10532,1.3234 l 0,8.1881 q 0.42177,0.7999 1.09077,1.309 0.66901,0.4944 1.74524,0.4944 1.75978,0 2.57422,-1.2797 0.82899,-1.2799 0.82899,-3.9269 l 0,-1.4689 z"
         style="font-style:normal;font-variant:normal;font-weight:normal;font-stretch:normal;font-size:21.41481209px;line-height:125%;font-family:'Roboto Condensed';-inkscape-font-specification:'Roboto Condensed, ';text-align:end;letter-spacing:0px;word-spacing:0px;text-anchor:end;fill:#ffffff;fill-opacity:1;stroke:none"
         id="path4211"
         inkscape:connector-curvature="0" />
      <path
         d="m 267.15799,1041.9924 q -0.61083,0.7999 -1.54162,1.2362 -0.91625,0.4362 -2.1961,0.4362 -0.97442,0 -1.77433,-0.3199 -0.79989,-0.3345 -1.36709,-1.0326 -0.5672,-0.7127 -0.88717,-1.818 -0.30541,-1.1198 -0.30541,-2.6905 l 0,-10.1661 2.55967,0 0,10.1951 q 0,1.0617 0.18908,1.7598 0.20361,0.6836 0.50902,1.0908 0.31997,0.3927 0.71264,0.5526 0.40722,0.1455 0.7999,0.1455 1.27984,0 2.05065,-0.5672 0.77083,-0.5672 1.17805,-1.527 l 0,-11.6496 2.57422,0 0,15.7362 -2.44333,0 -0.0581,-1.3815 z"
         style="font-style:normal;font-variant:normal;font-weight:normal;font-stretch:normal;font-size:21.41481209px;line-height:125%;font-family:'Roboto Condensed';-inkscape-font-specification:'Roboto Condensed, ';text-align:end;letter-spacing:0px;word-spacing:0px;text-anchor:end;fill:#ffffff;fill-opacity:1;stroke:none"
         id="path4213"
         inkscape:connector-curvature="0" />
      <path
         d="m 276.33503,1043.3739 -2.57422,0 0,-22.339 2.57422,0 0,22.339 z"
         style="font-style:normal;font-variant:normal;font-weight:normal;font-stretch:normal;font-size:21.41481209px;line-height:125%;font-family:'Roboto Condensed';-inkscape-font-specification:'Roboto Condensed, ';text-align:end;letter-spacing:0px;word-spacing:0px;text-anchor:end;fill:#ffffff;fill-opacity:1;stroke:none"
         id="path4215"
         inkscape:connector-curvature="0" />
      <path
         d="m 288.46442,1043.3739 q -0.13088,-0.2908 -0.21816,-0.7417 -0.0727,-0.4654 -0.11627,-0.9743 -0.27633,0.4071 -0.63992,0.7707 -0.34905,0.3637 -0.79991,0.6399 -0.4363,0.2764 -0.95987,0.4363 -0.50903,0.16 -1.09078,0.16 -1.03259,0 -1.87613,-0.2909 -0.82899,-0.2908 -1.42527,-0.8726 -0.5963,-0.5817 -0.91625,-1.4252 -0.31996,-0.8581 -0.31996,-1.9925 0,-1.1344 0.39267,-2.0943 0.39269,-0.9599 1.1635,-1.658 0.77081,-0.6981 1.93431,-1.0907 1.16348,-0.4072 2.70511,-0.4072 l 1.78887,0 0,-1.6726 q 0,-1.4107 -0.62538,-2.007 -0.62537,-0.5963 -1.90521,-0.5963 -0.62538,0 -1.11987,0.2036 -0.47994,0.1891 -0.81444,0.5236 -0.33451,0.3345 -0.50902,0.7854 -0.17453,0.4363 -0.17453,0.9308 l -2.57422,0 q 0,-0.8436 0.36359,-1.6726 0.37814,-0.8435 1.06168,-1.4979 0.6981,-0.669 1.68707,-1.0763 0.98897,-0.4072 2.21063,-0.4072 1.09077,0 1.99247,0.2617 0.91626,0.2618 1.57072,0.8436 0.66901,0.5818 1.0326,1.498 0.36359,0.9163 0.36359,2.2397 l 0,7.7518 q 0,0.3926 0.0291,0.8289 0.0291,0.4363 0.0872,0.8581 0.0727,0.4218 0.15998,0.8145 0.10181,0.3781 0.21816,0.698 l 0,0.2327 -2.67604,0 z m -3.43229,-2.0505 q 0.53811,0 1.01805,-0.1601 0.47994,-0.16 0.87262,-0.4071 0.39268,-0.2619 0.68355,-0.5818 0.30541,-0.3345 0.47994,-0.6837 l 0,-3.7521 -1.35256,0 q -0.93079,0 -1.68707,0.2036 -0.74172,0.2036 -1.27983,0.5963 -0.52358,0.3781 -0.81444,0.9453 -0.27634,0.5672 -0.27634,1.2944 0,0.7125 0.14545,1.2071 0.14543,0.4799 0.4363,0.7853 0.29087,0.2909 0.72718,0.4217 0.45085,0.1308 1.04715,0.1308 z"
         style="font-style:normal;font-variant:normal;font-weight:normal;font-stretch:normal;font-size:21.41481209px;line-height:125%;font-family:'Roboto Condensed';-inkscape-font-specification:'Roboto Condensed, ';text-align:end;letter-spacing:0px;word-spacing:0px;text-anchor:end;fill:#ffffff;fill-opacity:1;stroke:none"
         id="path4217"
         inkscape:connector-curvature="0" />
      <path
         d="m 302.26635,1039.3454 q 0,-0.4363 -0.15998,-0.7854 -0.15998,-0.3636 -0.52357,-0.6835 -0.36359,-0.3345 -0.94533,-0.6546 -0.5672,-0.3199 -1.41074,-0.698 -1.09077,-0.4508 -1.96339,-0.8871 -0.85808,-0.4364 -1.45436,-0.9599 -0.58175,-0.5381 -0.90171,-1.2217 -0.30542,-0.6981 -0.30542,-1.6435 0,-0.9308 0.34904,-1.7451 0.3636,-0.8145 1.01807,-1.4108 0.65446,-0.6109 1.5707,-0.9598 0.91626,-0.3491 2.05066,-0.3491 1.19258,0 2.13791,0.3635 0.94534,0.3636 1.5998,1.0182 0.65447,0.6399 1.00352,1.5124 0.34904,0.8726 0.34904,1.8761 l -2.55967,0 q 0,-0.4798 -0.17453,-0.9307 -0.15998,-0.4654 -0.49448,-0.829 -0.31996,-0.3636 -0.78536,-0.5818 -0.4654,-0.2181 -1.07623,-0.2181 -0.65447,0 -1.11986,0.189 -0.45085,0.1746 -0.74172,0.48 -0.29088,0.2909 -0.43632,0.6835 -0.13088,0.3928 -0.13088,0.8145 0,0.4363 0.11627,0.7562 0.13089,0.3055 0.43631,0.5818 0.30542,0.2764 0.82899,0.5526 0.53812,0.2764 1.36709,0.64 1.19258,0.4654 2.10884,0.9453 0.93079,0.4654 1.55617,1.0326 0.62538,0.5526 0.94533,1.2653 0.31996,0.7127 0.31996,1.6579 0,1.0328 -0.37814,1.8762 -0.36359,0.829 -1.04713,1.4254 -0.68355,0.5816 -1.64343,0.9017 -0.95989,0.3053 -2.12337,0.3053 -1.33801,0 -2.37062,-0.4071 -1.0326,-0.4219 -1.73069,-1.1054 -0.6981,-0.6981 -1.06169,-1.5998 -0.34905,-0.9017 -0.34905,-1.8761 l 2.58877,0 q 0.0291,0.829 0.30542,1.3671 0.27633,0.5381 0.68355,0.858 0.42177,0.3201 0.93079,0.4509 0.50903,0.1169 1.00352,0.1169 1.27984,0 1.94884,-0.5672 0.66901,-0.5817 0.66901,-1.5561 z"
         style="font-style:normal;font-variant:normal;font-weight:normal;font-stretch:normal;font-size:21.41481209px;line-height:125%;font-family:'Roboto Condensed';-inkscape-font-specification:'Roboto Condensed, ';text-align:end;letter-spacing:0px;word-spacing:0px;text-anchor:end;fill:#ffffff;fill-opacity:1;stroke:none"
         id="path4219"
         inkscape:connector-curvature="0" />
    </g>
  </g>
</svg>
